--------------------------------------------------------------------------------
Command:            ./bin/drrDYNSLL
Massif arguments:   (none)
ms_print arguments: massif.out.30994
--------------------------------------------------------------------------------


    KB
760.2^                                                                       #
     |                                                                      @#
     |                                                                   @@:@#
     |                                             @@@                  @@@:@#
     |                                             @@           :     ::@@@:@#
     |                                            :@@ :    ::   :@::::::@@@:@#
     |                                            @@@ ::   :  :::@::::::@@@:@#
     |                                           @@@@ :::::: @:::@::::::@@@:@#
     |                                           @@@@ :::::: @:::@::::::@@@:@#
     |                                         @@@@@@ :::::: @:::@::::::@@@:@#
     |                                        @@ @@@@ :::::: @:::@::::::@@@:@#
     |                                      :@@@ @@@@ :::::: @:::@::::::@@@:@#
     |                                :::::::@@@ @@@@ :::::: @:::@::::::@@@:@#
     |                       :      :::: :: :@@@ @@@@ :::::: @:::@::::::@@@:@#
     |                    : @::::::::::: :: :@@@ @@@@ :::::: @:::@::::::@@@:@#
     |                   @::@::: :: :::: :: :@@@ @@@@ :::::: @:::@::::::@@@:@#
     |              :::@:@::@::: :: :::: :: :@@@ @@@@ :::::: @:::@::::::@@@:@#
     |    :  ::   :::: @:@::@::: :: :::: :: :@@@ @@@@ :::::: @:::@::::::@@@:@#
     |    :::::::::::: @:@::@::: :: :::: :: :@@@ @@@@ :::::: @:::@::::::@@@:@#
     |  @@:: ::: ::::: @:@::@::: :: :::: :: :@@@ @@@@ :::::: @:::@::::::@@@:@#
   0 +----------------------------------------------------------------------->Mi
     0                                                                   33.93

Number of snapshots: 73
 Detailed snapshots: [2, 13, 15, 18, 32, 33, 34, 35, 36, 38, 39, 46, 50, 60, 63, 64, 68, 70, 71, 72 (peak)]

--------------------------------------------------------------------------------
  n        time(i)         total(B)   useful-heap(B) extra-heap(B)    stacks(B)
--------------------------------------------------------------------------------
  0              0                0                0             0            0
  1        610,593           22,936           19,280         3,656            0
  2      1,421,120           42,408           35,236         7,172            0
83.09% (35,236B) (heap allocation functions) malloc/new/new[], --alloc-fns, etc.
->63.38% (26,880B) 0x40126B: cdsl_queue_list_lock_based_pthread_init (in /home/notis/gitlab/embedded/DDTR/DRR/bin/drrDYNSLL)
| ->63.38% (26,880B) 0x401373: cdsl_sll_init (in /home/notis/gitlab/embedded/DDTR/DRR/bin/drrDYNSLL)
|   ->63.38% (26,880B) 0x400FD4: find_node (in /home/notis/gitlab/embedded/DDTR/DRR/bin/drrDYNSLL)
|     ->63.38% (26,880B) 0x400DAE: main (in /home/notis/gitlab/embedded/DDTR/DRR/bin/drrDYNSLL)
|       
->07.92% (3,360B) 0x400F9B: find_node (in /home/notis/gitlab/embedded/DDTR/DRR/bin/drrDYNSLL)
| ->07.92% (3,360B) 0x400DAE: main (in /home/notis/gitlab/embedded/DDTR/DRR/bin/drrDYNSLL)
|   
->05.74% (2,436B) 0x400EBC: get_next_packet (in /home/notis/gitlab/embedded/DDTR/DRR/bin/drrDYNSLL)
| ->05.74% (2,436B) 0x400D97: main (in /home/notis/gitlab/embedded/DDTR/DRR/bin/drrDYNSLL)
|   
->05.66% (2,400B) 0x401392: cdsl_queue_list_lock_based_pthread_enqueue (in /home/notis/gitlab/embedded/DDTR/DRR/bin/drrDYNSLL)
| ->05.17% (2,192B) 0x401088: insert_packet (in /home/notis/gitlab/embedded/DDTR/DRR/bin/drrDYNSLL)
| | ->05.17% (2,192B) 0x400DC5: main (in /home/notis/gitlab/embedded/DDTR/DRR/bin/drrDYNSLL)
| |   
| ->00.49% (208B) in 1+ places, all below ms_print's threshold (01.00%)
| 
->00.38% (160B) in 1+ places, all below ms_print's threshold (01.00%)

--------------------------------------------------------------------------------
  n        time(i)         total(B)   useful-heap(B) extra-heap(B)    stacks(B)
--------------------------------------------------------------------------------
  3      2,141,187          130,312           86,944        43,368            0
  4      2,754,078           78,544           55,060        23,484            0
  5      3,521,826          132,992           87,440        45,552            0
  6      4,102,187          132,616           86,208        46,408            0
  7      4,875,220          105,056           72,324        32,732            0
  8      5,484,129          114,456           81,492        32,964            0
  9      6,140,124          138,240          101,464        36,776            0
 10      6,685,017          145,752          106,940        38,812            0
 11      7,321,793          166,272          119,244        47,028            0
 12      7,783,611          168,808          122,856        45,952            0
 13      8,404,158          193,528          137,616        55,912            0
71.11% (137,616B) (heap allocation functions) malloc/new/new[], --alloc-fns, etc.
->38.30% (74,112B) 0x40126B: cdsl_queue_list_lock_based_pthread_init (in /home/notis/gitlab/embedded/DDTR/DRR/bin/drrDYNSLL)
| ->38.30% (74,112B) 0x401373: cdsl_sll_init (in /home/notis/gitlab/embedded/DDTR/DRR/bin/drrDYNSLL)
|   ->38.30% (74,112B) 0x400FD4: find_node (in /home/notis/gitlab/embedded/DDTR/DRR/bin/drrDYNSLL)
|     ->38.30% (74,112B) 0x400DAE: main (in /home/notis/gitlab/embedded/DDTR/DRR/bin/drrDYNSLL)
|       
->20.02% (38,736B) 0x400EBC: get_next_packet (in /home/notis/gitlab/embedded/DDTR/DRR/bin/drrDYNSLL)
| ->20.02% (38,736B) 0x400D97: main (in /home/notis/gitlab/embedded/DDTR/DRR/bin/drrDYNSLL)
|   
->07.93% (15,344B) 0x401392: cdsl_queue_list_lock_based_pthread_enqueue (in /home/notis/gitlab/embedded/DDTR/DRR/bin/drrDYNSLL)
| ->07.68% (14,864B) 0x401088: insert_packet (in /home/notis/gitlab/embedded/DDTR/DRR/bin/drrDYNSLL)
| | ->07.68% (14,864B) 0x400DC5: main (in /home/notis/gitlab/embedded/DDTR/DRR/bin/drrDYNSLL)
| |   
| ->00.25% (480B) in 1+ places, all below ms_print's threshold (01.00%)
| 
->04.79% (9,264B) 0x400F9B: find_node (in /home/notis/gitlab/embedded/DDTR/DRR/bin/drrDYNSLL)
| ->04.79% (9,264B) 0x400DAE: main (in /home/notis/gitlab/embedded/DDTR/DRR/bin/drrDYNSLL)
|   
->00.08% (160B) in 1+ places, all below ms_print's threshold (01.00%)

--------------------------------------------------------------------------------
  n        time(i)         total(B)   useful-heap(B) extra-heap(B)    stacks(B)
--------------------------------------------------------------------------------
 14      8,925,085          180,672          131,096        49,576            0
 15      9,546,639          195,872          144,828        51,044            0
73.94% (144,828B) (heap allocation functions) malloc/new/new[], --alloc-fns, etc.
->45.87% (89,856B) 0x40126B: cdsl_queue_list_lock_based_pthread_init (in /home/notis/gitlab/embedded/DDTR/DRR/bin/drrDYNSLL)
| ->45.87% (89,856B) 0x401373: cdsl_sll_init (in /home/notis/gitlab/embedded/DDTR/DRR/bin/drrDYNSLL)
|   ->45.87% (89,856B) 0x400FD4: find_node (in /home/notis/gitlab/embedded/DDTR/DRR/bin/drrDYNSLL)
|     ->45.87% (89,856B) 0x400DAE: main (in /home/notis/gitlab/embedded/DDTR/DRR/bin/drrDYNSLL)
|       
->18.09% (35,436B) 0x400EBC: get_next_packet (in /home/notis/gitlab/embedded/DDTR/DRR/bin/drrDYNSLL)
| ->18.09% (35,436B) 0x400D97: main (in /home/notis/gitlab/embedded/DDTR/DRR/bin/drrDYNSLL)
|   
->05.73% (11,232B) 0x400F9B: find_node (in /home/notis/gitlab/embedded/DDTR/DRR/bin/drrDYNSLL)
| ->05.73% (11,232B) 0x400DAE: main (in /home/notis/gitlab/embedded/DDTR/DRR/bin/drrDYNSLL)
|   
->04.16% (8,144B) 0x401392: cdsl_queue_list_lock_based_pthread_enqueue (in /home/notis/gitlab/embedded/DDTR/DRR/bin/drrDYNSLL)
| ->03.90% (7,632B) 0x401088: insert_packet (in /home/notis/gitlab/embedded/DDTR/DRR/bin/drrDYNSLL)
| | ->03.90% (7,632B) 0x400DC5: main (in /home/notis/gitlab/embedded/DDTR/DRR/bin/drrDYNSLL)
| |   
| ->00.26% (512B) in 1+ places, all below ms_print's threshold (01.00%)
| 
->00.08% (160B) in 1+ places, all below ms_print's threshold (01.00%)

--------------------------------------------------------------------------------
  n        time(i)         total(B)   useful-heap(B) extra-heap(B)    stacks(B)
--------------------------------------------------------------------------------
 16      9,960,429          240,648          172,780        67,868            0
 17     10,378,142          210,816          155,128        55,688            0
 18     10,895,454          267,048          188,920        78,128            0
70.74% (188,920B) (heap allocation functions) malloc/new/new[], --alloc-fns, etc.
->36.74% (98,112B) 0x40126B: cdsl_queue_list_lock_based_pthread_init (in /home/notis/gitlab/embedded/DDTR/DRR/bin/drrDYNSLL)
| ->36.74% (98,112B) 0x401373: cdsl_sll_init (in /home/notis/gitlab/embedded/DDTR/DRR/bin/drrDYNSLL)
|   ->36.74% (98,112B) 0x400FD4: find_node (in /home/notis/gitlab/embedded/DDTR/DRR/bin/drrDYNSLL)
|     ->36.74% (98,112B) 0x400DAE: main (in /home/notis/gitlab/embedded/DDTR/DRR/bin/drrDYNSLL)
|       
->19.74% (52,704B) 0x400EBC: get_next_packet (in /home/notis/gitlab/embedded/DDTR/DRR/bin/drrDYNSLL)
| ->19.74% (52,704B) 0x400D97: main (in /home/notis/gitlab/embedded/DDTR/DRR/bin/drrDYNSLL)
|   
->09.62% (25,696B) 0x401392: cdsl_queue_list_lock_based_pthread_enqueue (in /home/notis/gitlab/embedded/DDTR/DRR/bin/drrDYNSLL)
| ->09.42% (25,168B) 0x401088: insert_packet (in /home/notis/gitlab/embedded/DDTR/DRR/bin/drrDYNSLL)
| | ->09.42% (25,168B) 0x400DC5: main (in /home/notis/gitlab/embedded/DDTR/DRR/bin/drrDYNSLL)
| |   
| ->00.20% (528B) in 1+ places, all below ms_print's threshold (01.00%)
| 
->04.59% (12,264B) 0x400F9B: find_node (in /home/notis/gitlab/embedded/DDTR/DRR/bin/drrDYNSLL)
| ->04.59% (12,264B) 0x400DAE: main (in /home/notis/gitlab/embedded/DDTR/DRR/bin/drrDYNSLL)
|   
->00.05% (144B) in 1+ places, all below ms_print's threshold (01.00%)

--------------------------------------------------------------------------------
  n        time(i)         total(B)   useful-heap(B) extra-heap(B)    stacks(B)
--------------------------------------------------------------------------------
 19     11,398,154          283,728          198,104        85,624            0
 20     12,060,337          248,280          177,636        70,644            0
 21     12,719,348          255,360          180,712        74,648            0
 22     13,493,019          266,968          189,592        77,376            0
 23     14,238,972          270,928          193,304        77,624            0
 24     14,835,516          284,728          202,064        82,664            0
 25     15,432,067          289,672          208,052        81,620            0
 26     16,030,446          344,144          241,412       102,732            0
 27     16,557,718          313,616          222,356        91,260            0
 28     17,318,119          338,000          235,780       102,220            0
 29     17,649,731          330,680          232,648        98,032            0
 30     18,246,502          343,784          242,284       101,500            0
 31     18,843,107          359,312          255,976       103,336            0
 32     19,616,178          385,304          276,144       109,160            0
71.67% (276,144B) (heap allocation functions) malloc/new/new[], --alloc-fns, etc.
->41.36% (159,360B) 0x40126B: cdsl_queue_list_lock_based_pthread_init (in /home/notis/gitlab/embedded/DDTR/DRR/bin/drrDYNSLL)
| ->41.36% (159,360B) 0x401373: cdsl_sll_init (in /home/notis/gitlab/embedded/DDTR/DRR/bin/drrDYNSLL)
|   ->41.36% (159,360B) 0x400FD4: find_node (in /home/notis/gitlab/embedded/DDTR/DRR/bin/drrDYNSLL)
|     ->41.36% (159,360B) 0x400DAE: main (in /home/notis/gitlab/embedded/DDTR/DRR/bin/drrDYNSLL)
|       
->21.04% (81,072B) 0x400EBC: get_next_packet (in /home/notis/gitlab/embedded/DDTR/DRR/bin/drrDYNSLL)
| ->21.04% (81,072B) 0x400D97: main (in /home/notis/gitlab/embedded/DDTR/DRR/bin/drrDYNSLL)
|   
->05.17% (19,920B) 0x400F9B: find_node (in /home/notis/gitlab/embedded/DDTR/DRR/bin/drrDYNSLL)
| ->05.17% (19,920B) 0x400DAE: main (in /home/notis/gitlab/embedded/DDTR/DRR/bin/drrDYNSLL)
|   
->04.06% (15,632B) 0x401392: cdsl_queue_list_lock_based_pthread_enqueue (in /home/notis/gitlab/embedded/DDTR/DRR/bin/drrDYNSLL)
| ->03.83% (14,752B) 0x401088: insert_packet (in /home/notis/gitlab/embedded/DDTR/DRR/bin/drrDYNSLL)
| | ->03.83% (14,752B) 0x400DC5: main (in /home/notis/gitlab/embedded/DDTR/DRR/bin/drrDYNSLL)
| |   
| ->00.23% (880B) in 1+ places, all below ms_print's threshold (01.00%)
| 
->00.04% (160B) in 1+ places, all below ms_print's threshold (01.00%)

--------------------------------------------------------------------------------
  n        time(i)         total(B)   useful-heap(B) extra-heap(B)    stacks(B)
--------------------------------------------------------------------------------
 33     20,088,594          394,488          283,908       110,580            0
71.97% (283,908B) (heap allocation functions) malloc/new/new[], --alloc-fns, etc.
->42.10% (166,080B) 0x40126B: cdsl_queue_list_lock_based_pthread_init (in /home/notis/gitlab/embedded/DDTR/DRR/bin/drrDYNSLL)
| ->42.10% (166,080B) 0x401373: cdsl_sll_init (in /home/notis/gitlab/embedded/DDTR/DRR/bin/drrDYNSLL)
|   ->42.10% (166,080B) 0x400FD4: find_node (in /home/notis/gitlab/embedded/DDTR/DRR/bin/drrDYNSLL)
|     ->42.10% (166,080B) 0x400DAE: main (in /home/notis/gitlab/embedded/DDTR/DRR/bin/drrDYNSLL)
|       
->20.79% (81,996B) 0x400EBC: get_next_packet (in /home/notis/gitlab/embedded/DDTR/DRR/bin/drrDYNSLL)
| ->20.79% (81,996B) 0x400D97: main (in /home/notis/gitlab/embedded/DDTR/DRR/bin/drrDYNSLL)
|   
->05.26% (20,760B) 0x400F9B: find_node (in /home/notis/gitlab/embedded/DDTR/DRR/bin/drrDYNSLL)
| ->05.26% (20,760B) 0x400DAE: main (in /home/notis/gitlab/embedded/DDTR/DRR/bin/drrDYNSLL)
|   
->03.78% (14,912B) 0x401392: cdsl_queue_list_lock_based_pthread_enqueue (in /home/notis/gitlab/embedded/DDTR/DRR/bin/drrDYNSLL)
| ->03.54% (13,968B) 0x401088: insert_packet (in /home/notis/gitlab/embedded/DDTR/DRR/bin/drrDYNSLL)
| | ->03.54% (13,968B) 0x400DC5: main (in /home/notis/gitlab/embedded/DDTR/DRR/bin/drrDYNSLL)
| |   
| ->00.24% (944B) in 1+ places, all below ms_print's threshold (01.00%)
| 
->00.04% (160B) in 1+ places, all below ms_print's threshold (01.00%)

--------------------------------------------------------------------------------
  n        time(i)         total(B)   useful-heap(B) extra-heap(B)    stacks(B)
--------------------------------------------------------------------------------
 34     20,622,250          432,624          309,112       123,512            0
71.45% (309,112B) (heap allocation functions) malloc/new/new[], --alloc-fns, etc.
->40.08% (173,376B) 0x40126B: cdsl_queue_list_lock_based_pthread_init (in /home/notis/gitlab/embedded/DDTR/DRR/bin/drrDYNSLL)
| ->40.08% (173,376B) 0x401373: cdsl_sll_init (in /home/notis/gitlab/embedded/DDTR/DRR/bin/drrDYNSLL)
|   ->40.08% (173,376B) 0x400FD4: find_node (in /home/notis/gitlab/embedded/DDTR/DRR/bin/drrDYNSLL)
|     ->40.08% (173,376B) 0x400DAE: main (in /home/notis/gitlab/embedded/DDTR/DRR/bin/drrDYNSLL)
|       
->20.58% (89,040B) 0x400EBC: get_next_packet (in /home/notis/gitlab/embedded/DDTR/DRR/bin/drrDYNSLL)
| ->20.58% (89,040B) 0x400D97: main (in /home/notis/gitlab/embedded/DDTR/DRR/bin/drrDYNSLL)
|   
->05.75% (24,864B) 0x401392: cdsl_queue_list_lock_based_pthread_enqueue (in /home/notis/gitlab/embedded/DDTR/DRR/bin/drrDYNSLL)
| ->05.52% (23,888B) 0x401088: insert_packet (in /home/notis/gitlab/embedded/DDTR/DRR/bin/drrDYNSLL)
| | ->05.52% (23,888B) 0x400DC5: main (in /home/notis/gitlab/embedded/DDTR/DRR/bin/drrDYNSLL)
| |   
| ->00.23% (976B) in 1+ places, all below ms_print's threshold (01.00%)
| 
->05.01% (21,672B) 0x400F9B: find_node (in /home/notis/gitlab/embedded/DDTR/DRR/bin/drrDYNSLL)
| ->05.01% (21,672B) 0x400DAE: main (in /home/notis/gitlab/embedded/DDTR/DRR/bin/drrDYNSLL)
|   
->00.04% (160B) in 1+ places, all below ms_print's threshold (01.00%)

--------------------------------------------------------------------------------
  n        time(i)         total(B)   useful-heap(B) extra-heap(B)    stacks(B)
--------------------------------------------------------------------------------
 35     21,364,475          523,872          362,140       161,732            0
69.13% (362,140B) (heap allocation functions) malloc/new/new[], --alloc-fns, etc.
->33.10% (173,376B) 0x40126B: cdsl_queue_list_lock_based_pthread_init (in /home/notis/gitlab/embedded/DDTR/DRR/bin/drrDYNSLL)
| ->33.10% (173,376B) 0x401373: cdsl_sll_init (in /home/notis/gitlab/embedded/DDTR/DRR/bin/drrDYNSLL)
|   ->33.10% (173,376B) 0x400FD4: find_node (in /home/notis/gitlab/embedded/DDTR/DRR/bin/drrDYNSLL)
|     ->33.10% (173,376B) 0x400DAE: main (in /home/notis/gitlab/embedded/DDTR/DRR/bin/drrDYNSLL)
|       
->21.47% (112,452B) 0x400EBC: get_next_packet (in /home/notis/gitlab/embedded/DDTR/DRR/bin/drrDYNSLL)
| ->21.47% (112,452B) 0x400D97: main (in /home/notis/gitlab/embedded/DDTR/DRR/bin/drrDYNSLL)
|   
->10.40% (54,496B) 0x401392: cdsl_queue_list_lock_based_pthread_enqueue (in /home/notis/gitlab/embedded/DDTR/DRR/bin/drrDYNSLL)
| ->10.22% (53,536B) 0x401088: insert_packet (in /home/notis/gitlab/embedded/DDTR/DRR/bin/drrDYNSLL)
| | ->10.22% (53,536B) 0x400DC5: main (in /home/notis/gitlab/embedded/DDTR/DRR/bin/drrDYNSLL)
| |   
| ->00.18% (960B) in 1+ places, all below ms_print's threshold (01.00%)
| 
->04.14% (21,672B) 0x400F9B: find_node (in /home/notis/gitlab/embedded/DDTR/DRR/bin/drrDYNSLL)
| ->04.14% (21,672B) 0x400DAE: main (in /home/notis/gitlab/embedded/DDTR/DRR/bin/drrDYNSLL)
|   
->00.03% (144B) in 1+ places, all below ms_print's threshold (01.00%)

--------------------------------------------------------------------------------
  n        time(i)         total(B)   useful-heap(B) extra-heap(B)    stacks(B)
--------------------------------------------------------------------------------
 36     21,756,586          572,160          390,208       181,952            0
68.20% (390,208B) (heap allocation functions) malloc/new/new[], --alloc-fns, etc.
->30.30% (173,376B) 0x40126B: cdsl_queue_list_lock_based_pthread_init (in /home/notis/gitlab/embedded/DDTR/DRR/bin/drrDYNSLL)
| ->30.30% (173,376B) 0x401373: cdsl_sll_init (in /home/notis/gitlab/embedded/DDTR/DRR/bin/drrDYNSLL)
|   ->30.30% (173,376B) 0x400FD4: find_node (in /home/notis/gitlab/embedded/DDTR/DRR/bin/drrDYNSLL)
|     ->30.30% (173,376B) 0x400DAE: main (in /home/notis/gitlab/embedded/DDTR/DRR/bin/drrDYNSLL)
|       
->21.82% (124,824B) 0x400EBC: get_next_packet (in /home/notis/gitlab/embedded/DDTR/DRR/bin/drrDYNSLL)
| ->21.82% (124,824B) 0x400D97: main (in /home/notis/gitlab/embedded/DDTR/DRR/bin/drrDYNSLL)
|   
->12.27% (70,192B) 0x401392: cdsl_queue_list_lock_based_pthread_enqueue (in /home/notis/gitlab/embedded/DDTR/DRR/bin/drrDYNSLL)
| ->12.10% (69,232B) 0x401088: insert_packet (in /home/notis/gitlab/embedded/DDTR/DRR/bin/drrDYNSLL)
| | ->12.10% (69,232B) 0x400DC5: main (in /home/notis/gitlab/embedded/DDTR/DRR/bin/drrDYNSLL)
| |   
| ->00.17% (960B) in 1+ places, all below ms_print's threshold (01.00%)
| 
->03.79% (21,672B) 0x400F9B: find_node (in /home/notis/gitlab/embedded/DDTR/DRR/bin/drrDYNSLL)
| ->03.79% (21,672B) 0x400DAE: main (in /home/notis/gitlab/embedded/DDTR/DRR/bin/drrDYNSLL)
|   
->00.03% (144B) in 1+ places, all below ms_print's threshold (01.00%)

--------------------------------------------------------------------------------
  n        time(i)         total(B)   useful-heap(B) extra-heap(B)    stacks(B)
--------------------------------------------------------------------------------
 37     22,226,647          618,192          417,068       201,124            0
 38     22,726,124          668,952          446,380       222,572            0
66.73% (446,380B) (heap allocation functions) malloc/new/new[], --alloc-fns, etc.
->25.97% (173,760B) 0x40126B: cdsl_queue_list_lock_based_pthread_init (in /home/notis/gitlab/embedded/DDTR/DRR/bin/drrDYNSLL)
| ->25.97% (173,760B) 0x401373: cdsl_sll_init (in /home/notis/gitlab/embedded/DDTR/DRR/bin/drrDYNSLL)
|   ->25.97% (173,760B) 0x400FD4: find_node (in /home/notis/gitlab/embedded/DDTR/DRR/bin/drrDYNSLL)
|     ->25.97% (173,760B) 0x400DAE: main (in /home/notis/gitlab/embedded/DDTR/DRR/bin/drrDYNSLL)
|       
->22.46% (150,228B) 0x400EBC: get_next_packet (in /home/notis/gitlab/embedded/DDTR/DRR/bin/drrDYNSLL)
| ->22.46% (150,228B) 0x400D97: main (in /home/notis/gitlab/embedded/DDTR/DRR/bin/drrDYNSLL)
|   
->15.02% (100,496B) 0x401392: cdsl_queue_list_lock_based_pthread_enqueue (in /home/notis/gitlab/embedded/DDTR/DRR/bin/drrDYNSLL)
| ->14.88% (99,536B) 0x401088: insert_packet (in /home/notis/gitlab/embedded/DDTR/DRR/bin/drrDYNSLL)
| | ->14.88% (99,536B) 0x400DC5: main (in /home/notis/gitlab/embedded/DDTR/DRR/bin/drrDYNSLL)
| |   
| ->00.14% (960B) in 1+ places, all below ms_print's threshold (01.00%)
| 
->03.25% (21,720B) 0x400F9B: find_node (in /home/notis/gitlab/embedded/DDTR/DRR/bin/drrDYNSLL)
| ->03.25% (21,720B) 0x400DAE: main (in /home/notis/gitlab/embedded/DDTR/DRR/bin/drrDYNSLL)
|   
->00.03% (176B) in 1+ places, all below ms_print's threshold (01.00%)

--------------------------------------------------------------------------------
  n        time(i)         total(B)   useful-heap(B) extra-heap(B)    stacks(B)
--------------------------------------------------------------------------------
 39     23,107,493          700,152          464,280       235,872            0
66.31% (464,280B) (heap allocation functions) malloc/new/new[], --alloc-fns, etc.
->24.82% (173,760B) 0x40126B: cdsl_queue_list_lock_based_pthread_init (in /home/notis/gitlab/embedded/DDTR/DRR/bin/drrDYNSLL)
| ->24.82% (173,760B) 0x401373: cdsl_sll_init (in /home/notis/gitlab/embedded/DDTR/DRR/bin/drrDYNSLL)
|   ->24.82% (173,760B) 0x400FD4: find_node (in /home/notis/gitlab/embedded/DDTR/DRR/bin/drrDYNSLL)
|     ->24.82% (173,760B) 0x400DAE: main (in /home/notis/gitlab/embedded/DDTR/DRR/bin/drrDYNSLL)
|       
->22.70% (158,928B) 0x400EBC: get_next_packet (in /home/notis/gitlab/embedded/DDTR/DRR/bin/drrDYNSLL)
| ->22.70% (158,928B) 0x400D97: main (in /home/notis/gitlab/embedded/DDTR/DRR/bin/drrDYNSLL)
|   
->15.67% (109,696B) 0x401392: cdsl_queue_list_lock_based_pthread_enqueue (in /home/notis/gitlab/embedded/DDTR/DRR/bin/drrDYNSLL)
| ->15.53% (108,736B) 0x401088: insert_packet (in /home/notis/gitlab/embedded/DDTR/DRR/bin/drrDYNSLL)
| | ->15.53% (108,736B) 0x400DC5: main (in /home/notis/gitlab/embedded/DDTR/DRR/bin/drrDYNSLL)
| |   
| ->00.14% (960B) in 1+ places, all below ms_print's threshold (01.00%)
| 
->03.10% (21,720B) 0x400F9B: find_node (in /home/notis/gitlab/embedded/DDTR/DRR/bin/drrDYNSLL)
| ->03.10% (21,720B) 0x400DAE: main (in /home/notis/gitlab/embedded/DDTR/DRR/bin/drrDYNSLL)
|   
->00.03% (176B) in 1+ places, all below ms_print's threshold (01.00%)

--------------------------------------------------------------------------------
  n        time(i)         total(B)   useful-heap(B) extra-heap(B)    stacks(B)
--------------------------------------------------------------------------------
 40     23,922,611          620,784          413,988       206,796            0
 41     24,533,684          560,424          376,088       184,336            0
 42     24,941,006          516,360          349,348       167,012            0
 43     25,351,316          511,008          347,004       164,004            0
 44     25,758,912          533,976          362,348       171,628            0
 45     26,573,717          607,704          404,856       202,848            0
 46     27,184,968          539,376          363,688       175,688            0
67.43% (363,688B) (heap allocation functions) malloc/new/new[], --alloc-fns, etc.
->33.50% (180,672B) 0x40126B: cdsl_queue_list_lock_based_pthread_init (in /home/notis/gitlab/embedded/DDTR/DRR/bin/drrDYNSLL)
| ->33.50% (180,672B) 0x401373: cdsl_sll_init (in /home/notis/gitlab/embedded/DDTR/DRR/bin/drrDYNSLL)
|   ->33.50% (180,672B) 0x400FD4: find_node (in /home/notis/gitlab/embedded/DDTR/DRR/bin/drrDYNSLL)
|     ->33.50% (180,672B) 0x400DAE: main (in /home/notis/gitlab/embedded/DDTR/DRR/bin/drrDYNSLL)
|       
->26.92% (145,200B) 0x400EBC: get_next_packet (in /home/notis/gitlab/embedded/DDTR/DRR/bin/drrDYNSLL)
| ->26.92% (145,200B) 0x400D97: main (in /home/notis/gitlab/embedded/DDTR/DRR/bin/drrDYNSLL)
|   
->04.19% (22,584B) 0x400F9B: find_node (in /home/notis/gitlab/embedded/DDTR/DRR/bin/drrDYNSLL)
| ->04.19% (22,584B) 0x400DAE: main (in /home/notis/gitlab/embedded/DDTR/DRR/bin/drrDYNSLL)
|   
->02.79% (15,056B) 0x401392: cdsl_queue_list_lock_based_pthread_enqueue (in /home/notis/gitlab/embedded/DDTR/DRR/bin/drrDYNSLL)
| ->02.61% (14,064B) 0x401088: insert_packet (in /home/notis/gitlab/embedded/DDTR/DRR/bin/drrDYNSLL)
| | ->02.61% (14,064B) 0x400DC5: main (in /home/notis/gitlab/embedded/DDTR/DRR/bin/drrDYNSLL)
| |   
| ->00.18% (992B) in 1+ places, all below ms_print's threshold (01.00%)
| 
->00.03% (176B) in 1+ places, all below ms_print's threshold (01.00%)

--------------------------------------------------------------------------------
  n        time(i)         total(B)   useful-heap(B) extra-heap(B)    stacks(B)
--------------------------------------------------------------------------------
 47     27,999,900          564,960          379,656       185,304            0
 48     28,407,454          564,168          379,796       184,372            0
 49     29,018,415          634,080          421,540       212,540            0
 50     29,350,317          617,824          411,288       206,536            0
66.57% (411,288B) (heap allocation functions) malloc/new/new[], --alloc-fns, etc.
->30.80% (190,272B) 0x40126B: cdsl_queue_list_lock_based_pthread_init (in /home/notis/gitlab/embedded/DDTR/DRR/bin/drrDYNSLL)
| ->30.80% (190,272B) 0x401373: cdsl_sll_init (in /home/notis/gitlab/embedded/DDTR/DRR/bin/drrDYNSLL)
|   ->30.80% (190,272B) 0x400FD4: find_node (in /home/notis/gitlab/embedded/DDTR/DRR/bin/drrDYNSLL)
|     ->30.80% (190,272B) 0x400DAE: main (in /home/notis/gitlab/embedded/DDTR/DRR/bin/drrDYNSLL)
|       
->27.14% (167,664B) 0x400EBC: get_next_packet (in /home/notis/gitlab/embedded/DDTR/DRR/bin/drrDYNSLL)
| ->27.14% (167,664B) 0x400D97: main (in /home/notis/gitlab/embedded/DDTR/DRR/bin/drrDYNSLL)
|   
->04.76% (29,392B) 0x401392: cdsl_queue_list_lock_based_pthread_enqueue (in /home/notis/gitlab/embedded/DDTR/DRR/bin/drrDYNSLL)
| ->04.59% (28,384B) 0x401088: insert_packet (in /home/notis/gitlab/embedded/DDTR/DRR/bin/drrDYNSLL)
| | ->04.59% (28,384B) 0x400DC5: main (in /home/notis/gitlab/embedded/DDTR/DRR/bin/drrDYNSLL)
| |   
| ->00.16% (1,008B) in 1+ places, all below ms_print's threshold (01.00%)
| 
->03.85% (23,784B) 0x400F9B: find_node (in /home/notis/gitlab/embedded/DDTR/DRR/bin/drrDYNSLL)
| ->03.85% (23,784B) 0x400DAE: main (in /home/notis/gitlab/embedded/DDTR/DRR/bin/drrDYNSLL)
|   
->00.03% (176B) in 1+ places, all below ms_print's threshold (01.00%)

--------------------------------------------------------------------------------
  n        time(i)         total(B)   useful-heap(B) extra-heap(B)    stacks(B)
--------------------------------------------------------------------------------
 51     29,692,648          583,824          391,212       192,612            0
 52     30,024,373          598,584          404,024       194,560            0
 53     30,356,212          602,544          407,004       195,540            0
 54     30,688,057          609,144          411,944       197,200            0
 55     31,019,778          615,504          417,244       198,260            0
 56     31,351,533          620,064          421,080       198,984            0
 57     31,683,199          630,720          429,696       201,024            0
 58     32,014,931          642,552          440,320       202,232            0
 59     32,346,751          656,856          452,856       204,000            0
 60     32,678,365          668,928          463,392       205,536            0
69.27% (463,392B) (heap allocation functions) malloc/new/new[], --alloc-fns, etc.
->37.03% (247,680B) 0x40126B: cdsl_queue_list_lock_based_pthread_init (in /home/notis/gitlab/embedded/DDTR/DRR/bin/drrDYNSLL)
| ->37.03% (247,680B) 0x401373: cdsl_sll_init (in /home/notis/gitlab/embedded/DDTR/DRR/bin/drrDYNSLL)
|   ->37.03% (247,680B) 0x400FD4: find_node (in /home/notis/gitlab/embedded/DDTR/DRR/bin/drrDYNSLL)
|     ->37.03% (247,680B) 0x400DAE: main (in /home/notis/gitlab/embedded/DDTR/DRR/bin/drrDYNSLL)
|       
->24.49% (163,824B) 0x400EBC: get_next_packet (in /home/notis/gitlab/embedded/DDTR/DRR/bin/drrDYNSLL)
| ->24.49% (163,824B) 0x400D97: main (in /home/notis/gitlab/embedded/DDTR/DRR/bin/drrDYNSLL)
|   
->04.63% (30,960B) 0x400F9B: find_node (in /home/notis/gitlab/embedded/DDTR/DRR/bin/drrDYNSLL)
| ->04.63% (30,960B) 0x400DAE: main (in /home/notis/gitlab/embedded/DDTR/DRR/bin/drrDYNSLL)
|   
->03.10% (20,752B) 0x401392: cdsl_queue_list_lock_based_pthread_enqueue (in /home/notis/gitlab/embedded/DDTR/DRR/bin/drrDYNSLL)
| ->02.91% (19,456B) 0x401088: insert_packet (in /home/notis/gitlab/embedded/DDTR/DRR/bin/drrDYNSLL)
| | ->02.91% (19,456B) 0x400DC5: main (in /home/notis/gitlab/embedded/DDTR/DRR/bin/drrDYNSLL)
| |   
| ->00.19% (1,296B) in 1+ places, all below ms_print's threshold (01.00%)
| 
->00.03% (176B) in 1+ places, all below ms_print's threshold (01.00%)

--------------------------------------------------------------------------------
  n        time(i)         total(B)   useful-heap(B) extra-heap(B)    stacks(B)
--------------------------------------------------------------------------------
 61     33,009,994          685,008          477,444       207,564            0
 62     33,341,680          694,536          485,688       208,848            0
 63     33,474,500          712,152          496,200       215,952            0
69.68% (496,200B) (heap allocation functions) malloc/new/new[], --alloc-fns, etc.
->37.42% (266,496B) 0x40126B: cdsl_queue_list_lock_based_pthread_init (in /home/notis/gitlab/embedded/DDTR/DRR/bin/drrDYNSLL)
| ->37.42% (266,496B) 0x401373: cdsl_sll_init (in /home/notis/gitlab/embedded/DDTR/DRR/bin/drrDYNSLL)
|   ->37.42% (266,496B) 0x400FD4: find_node (in /home/notis/gitlab/embedded/DDTR/DRR/bin/drrDYNSLL)
|     ->37.42% (266,496B) 0x400DAE: main (in /home/notis/gitlab/embedded/DDTR/DRR/bin/drrDYNSLL)
|       
->23.63% (168,312B) 0x400EBC: get_next_packet (in /home/notis/gitlab/embedded/DDTR/DRR/bin/drrDYNSLL)
| ->23.63% (168,312B) 0x400D97: main (in /home/notis/gitlab/embedded/DDTR/DRR/bin/drrDYNSLL)
|   
->04.68% (33,312B) 0x400F9B: find_node (in /home/notis/gitlab/embedded/DDTR/DRR/bin/drrDYNSLL)
| ->04.68% (33,312B) 0x400DAE: main (in /home/notis/gitlab/embedded/DDTR/DRR/bin/drrDYNSLL)
|   
->03.92% (27,888B) 0x401392: cdsl_queue_list_lock_based_pthread_enqueue (in /home/notis/gitlab/embedded/DDTR/DRR/bin/drrDYNSLL)
| ->03.73% (26,528B) 0x401088: insert_packet (in /home/notis/gitlab/embedded/DDTR/DRR/bin/drrDYNSLL)
| | ->03.73% (26,528B) 0x400DC5: main (in /home/notis/gitlab/embedded/DDTR/DRR/bin/drrDYNSLL)
| |   
| ->00.19% (1,360B) in 1+ places, all below ms_print's threshold (01.00%)
| 
->00.03% (192B) in 1+ places, all below ms_print's threshold (01.00%)

--------------------------------------------------------------------------------
  n        time(i)         total(B)   useful-heap(B) extra-heap(B)    stacks(B)
--------------------------------------------------------------------------------
 64     33,625,849          730,144          506,764       223,380            0
69.41% (506,764B) (heap allocation functions) malloc/new/new[], --alloc-fns, etc.
->36.53% (266,688B) 0x40126B: cdsl_queue_list_lock_based_pthread_init (in /home/notis/gitlab/embedded/DDTR/DRR/bin/drrDYNSLL)
| ->36.53% (266,688B) 0x401373: cdsl_sll_init (in /home/notis/gitlab/embedded/DDTR/DRR/bin/drrDYNSLL)
|   ->36.53% (266,688B) 0x400FD4: find_node (in /home/notis/gitlab/embedded/DDTR/DRR/bin/drrDYNSLL)
|     ->36.53% (266,688B) 0x400DAE: main (in /home/notis/gitlab/embedded/DDTR/DRR/bin/drrDYNSLL)
|       
->23.66% (172,740B) 0x400EBC: get_next_packet (in /home/notis/gitlab/embedded/DDTR/DRR/bin/drrDYNSLL)
| ->23.66% (172,740B) 0x400D97: main (in /home/notis/gitlab/embedded/DDTR/DRR/bin/drrDYNSLL)
|   
->04.63% (33,808B) 0x401392: cdsl_queue_list_lock_based_pthread_enqueue (in /home/notis/gitlab/embedded/DDTR/DRR/bin/drrDYNSLL)
| ->04.44% (32,448B) 0x401088: insert_packet (in /home/notis/gitlab/embedded/DDTR/DRR/bin/drrDYNSLL)
| | ->04.44% (32,448B) 0x400DC5: main (in /home/notis/gitlab/embedded/DDTR/DRR/bin/drrDYNSLL)
| |   
| ->00.19% (1,360B) in 1+ places, all below ms_print's threshold (01.00%)
| 
->04.57% (33,336B) 0x400F9B: find_node (in /home/notis/gitlab/embedded/DDTR/DRR/bin/drrDYNSLL)
| ->04.57% (33,336B) 0x400DAE: main (in /home/notis/gitlab/embedded/DDTR/DRR/bin/drrDYNSLL)
|   
->00.03% (192B) in 1+ places, all below ms_print's threshold (01.00%)

--------------------------------------------------------------------------------
  n        time(i)         total(B)   useful-heap(B) extra-heap(B)    stacks(B)
--------------------------------------------------------------------------------
 65     33,957,550          706,680          493,360       213,320            0
 66     34,289,254          720,216          504,924       215,292            0
 67     34,620,919          729,792          513,628       216,164            0
 68     34,788,341          744,096          523,532       220,564            0
70.36% (523,532B) (heap allocation functions) malloc/new/new[], --alloc-fns, etc.
->38.91% (289,536B) 0x40126B: cdsl_queue_list_lock_based_pthread_init (in /home/notis/gitlab/embedded/DDTR/DRR/bin/drrDYNSLL)
| ->38.91% (289,536B) 0x401373: cdsl_sll_init (in /home/notis/gitlab/embedded/DDTR/DRR/bin/drrDYNSLL)
|   ->38.91% (289,536B) 0x400FD4: find_node (in /home/notis/gitlab/embedded/DDTR/DRR/bin/drrDYNSLL)
|     ->38.91% (289,536B) 0x400DAE: main (in /home/notis/gitlab/embedded/DDTR/DRR/bin/drrDYNSLL)
|       
->22.90% (170,364B) 0x400EBC: get_next_packet (in /home/notis/gitlab/embedded/DDTR/DRR/bin/drrDYNSLL)
| ->22.90% (170,364B) 0x400D97: main (in /home/notis/gitlab/embedded/DDTR/DRR/bin/drrDYNSLL)
|   
->04.86% (36,192B) 0x400F9B: find_node (in /home/notis/gitlab/embedded/DDTR/DRR/bin/drrDYNSLL)
| ->04.86% (36,192B) 0x400DAE: main (in /home/notis/gitlab/embedded/DDTR/DRR/bin/drrDYNSLL)
|   
->03.66% (27,248B) 0x401392: cdsl_queue_list_lock_based_pthread_enqueue (in /home/notis/gitlab/embedded/DDTR/DRR/bin/drrDYNSLL)
| ->03.41% (25,344B) 0x401088: insert_packet (in /home/notis/gitlab/embedded/DDTR/DRR/bin/drrDYNSLL)
| | ->03.41% (25,344B) 0x400DC5: main (in /home/notis/gitlab/embedded/DDTR/DRR/bin/drrDYNSLL)
| |   
| ->00.26% (1,904B) in 1+ places, all below ms_print's threshold (01.00%)
| 
->00.03% (192B) in 1+ places, all below ms_print's threshold (01.00%)

--------------------------------------------------------------------------------
  n        time(i)         total(B)   useful-heap(B) extra-heap(B)    stacks(B)
--------------------------------------------------------------------------------
 69     35,120,292          745,872          527,580       218,292            0
 70     35,238,385          752,544          532,488       220,056            0
70.76% (532,488B) (heap allocation functions) malloc/new/new[], --alloc-fns, etc.
->39.80% (299,520B) 0x40126B: cdsl_queue_list_lock_based_pthread_init (in /home/notis/gitlab/embedded/DDTR/DRR/bin/drrDYNSLL)
| ->39.80% (299,520B) 0x401373: cdsl_sll_init (in /home/notis/gitlab/embedded/DDTR/DRR/bin/drrDYNSLL)
|   ->39.80% (299,520B) 0x400FD4: find_node (in /home/notis/gitlab/embedded/DDTR/DRR/bin/drrDYNSLL)
|     ->39.80% (299,520B) 0x400DAE: main (in /home/notis/gitlab/embedded/DDTR/DRR/bin/drrDYNSLL)
|       
->22.47% (169,128B) 0x400EBC: get_next_packet (in /home/notis/gitlab/embedded/DDTR/DRR/bin/drrDYNSLL)
| ->22.47% (169,128B) 0x400D97: main (in /home/notis/gitlab/embedded/DDTR/DRR/bin/drrDYNSLL)
|   
->04.98% (37,440B) 0x400F9B: find_node (in /home/notis/gitlab/embedded/DDTR/DRR/bin/drrDYNSLL)
| ->04.98% (37,440B) 0x400DAE: main (in /home/notis/gitlab/embedded/DDTR/DRR/bin/drrDYNSLL)
|   
->03.48% (26,208B) 0x401392: cdsl_queue_list_lock_based_pthread_enqueue (in /home/notis/gitlab/embedded/DDTR/DRR/bin/drrDYNSLL)
| ->03.22% (24,256B) 0x401088: insert_packet (in /home/notis/gitlab/embedded/DDTR/DRR/bin/drrDYNSLL)
| | ->03.22% (24,256B) 0x400DC5: main (in /home/notis/gitlab/embedded/DDTR/DRR/bin/drrDYNSLL)
| |   
| ->00.26% (1,952B) in 1+ places, all below ms_print's threshold (01.00%)
| 
->00.03% (192B) in 1+ places, all below ms_print's threshold (01.00%)

--------------------------------------------------------------------------------
  n        time(i)         total(B)   useful-heap(B) extra-heap(B)    stacks(B)
--------------------------------------------------------------------------------
 71     35,457,837          765,888          541,304       224,584            0
70.68% (541,304B) (heap allocation functions) malloc/new/new[], --alloc-fns, etc.
->39.46% (302,208B) 0x40126B: cdsl_queue_list_lock_based_pthread_init (in /home/notis/gitlab/embedded/DDTR/DRR/bin/drrDYNSLL)
| ->39.46% (302,208B) 0x401373: cdsl_sll_init (in /home/notis/gitlab/embedded/DDTR/DRR/bin/drrDYNSLL)
|   ->39.46% (302,208B) 0x400FD4: find_node (in /home/notis/gitlab/embedded/DDTR/DRR/bin/drrDYNSLL)
|     ->39.46% (302,208B) 0x400DAE: main (in /home/notis/gitlab/embedded/DDTR/DRR/bin/drrDYNSLL)
|       
->22.42% (171,720B) 0x400EBC: get_next_packet (in /home/notis/gitlab/embedded/DDTR/DRR/bin/drrDYNSLL)
| ->22.42% (171,720B) 0x400D97: main (in /home/notis/gitlab/embedded/DDTR/DRR/bin/drrDYNSLL)
|   
->04.93% (37,776B) 0x400F9B: find_node (in /home/notis/gitlab/embedded/DDTR/DRR/bin/drrDYNSLL)
| ->04.93% (37,776B) 0x400DAE: main (in /home/notis/gitlab/embedded/DDTR/DRR/bin/drrDYNSLL)
|   
->03.84% (29,408B) 0x401392: cdsl_queue_list_lock_based_pthread_enqueue (in /home/notis/gitlab/embedded/DDTR/DRR/bin/drrDYNSLL)
| ->03.58% (27,440B) 0x401088: insert_packet (in /home/notis/gitlab/embedded/DDTR/DRR/bin/drrDYNSLL)
| | ->03.58% (27,440B) 0x400DC5: main (in /home/notis/gitlab/embedded/DDTR/DRR/bin/drrDYNSLL)
| |   
| ->00.26% (1,968B) in 1+ places, all below ms_print's threshold (01.00%)
| 
->00.03% (192B) in 1+ places, all below ms_print's threshold (01.00%)

--------------------------------------------------------------------------------
  n        time(i)         total(B)   useful-heap(B) extra-heap(B)    stacks(B)
--------------------------------------------------------------------------------
 72     35,579,983          778,440          548,576       229,864            0
70.47% (548,576B) (heap allocation functions) malloc/new/new[], --alloc-fns, etc.
->38.82% (302,208B) 0x40126B: cdsl_queue_list_lock_based_pthread_init (in /home/notis/gitlab/embedded/DDTR/DRR/bin/drrDYNSLL)
| ->38.82% (302,208B) 0x401373: cdsl_sll_init (in /home/notis/gitlab/embedded/DDTR/DRR/bin/drrDYNSLL)
|   ->38.82% (302,208B) 0x400FD4: find_node (in /home/notis/gitlab/embedded/DDTR/DRR/bin/drrDYNSLL)
|     ->38.82% (302,208B) 0x400DAE: main (in /home/notis/gitlab/embedded/DDTR/DRR/bin/drrDYNSLL)
|       
->22.48% (175,008B) 0x400EBC: get_next_packet (in /home/notis/gitlab/embedded/DDTR/DRR/bin/drrDYNSLL)
| ->22.48% (175,008B) 0x400D97: main (in /home/notis/gitlab/embedded/DDTR/DRR/bin/drrDYNSLL)
|   
->04.85% (37,776B) 0x400F9B: find_node (in /home/notis/gitlab/embedded/DDTR/DRR/bin/drrDYNSLL)
| ->04.85% (37,776B) 0x400DAE: main (in /home/notis/gitlab/embedded/DDTR/DRR/bin/drrDYNSLL)
|   
->04.29% (33,408B) 0x401392: cdsl_queue_list_lock_based_pthread_enqueue (in /home/notis/gitlab/embedded/DDTR/DRR/bin/drrDYNSLL)
| ->04.04% (31,456B) 0x401088: insert_packet (in /home/notis/gitlab/embedded/DDTR/DRR/bin/drrDYNSLL)
| | ->04.04% (31,456B) 0x400DC5: main (in /home/notis/gitlab/embedded/DDTR/DRR/bin/drrDYNSLL)
| |   
| ->00.25% (1,952B) in 1+ places, all below ms_print's threshold (01.00%)
| 
->00.02% (176B) in 1+ places, all below ms_print's threshold (01.00%)

