--------------------------------------------------------------------------------
Command:            ./bin/drrDLLDYN
Massif arguments:   (none)
ms_print arguments: massif.out.30991
--------------------------------------------------------------------------------


    MB
1.128^                                                                       #
     |                                                                       #
     |                                                                      @#
     |                                                                     @@#
     |                                                                 @@::@@#
     |                                                            @::::@@::@@#
     |                                   @@::::::@@:::::::::::@:::@::::@@::@@#
     |                                   @@::::: @ ::::: : :::@:::@::::@@::@@#
     |                                 @:@@::::: @ ::::: : :::@:::@::::@@::@@#
     |                                 @ @@::::: @ ::::: : :::@:::@::::@@::@@#
     |                               @@@ @@::::: @ ::::: : :::@:::@::::@@::@@#
     |                           : ::@ @ @@::::: @ ::::: : :::@:::@::::@@::@@#
     |                          @::::@ @ @@::::: @ ::::: : :::@:::@::::@@::@@#
     |                       ::@@::::@ @ @@::::: @ ::::: : :::@:::@::::@@::@@#
     |                  :::::::@@::::@ @ @@::::: @ ::::: : :::@:::@::::@@::@@#
     |                @::::: ::@@::::@ @ @@::::: @ ::::: : :::@:::@::::@@::@@#
     |            :::@@::::: ::@@::::@ @ @@::::: @ ::::: : :::@:::@::::@@::@@#
     |            :: @@::::: ::@@::::@ @ @@::::: @ ::::: : :::@:::@::::@@::@@#
     | :    :::::::: @@::::: ::@@::::@ @ @@::::: @ ::::: : :::@:::@::::@@::@@#
     | :::::::::: :: @@::::: ::@@::::@ @ @@::::: @ ::::: : :::@:::@::::@@::@@#
   0 +----------------------------------------------------------------------->Mi
     0                                                                   284.5

Number of snapshots: 99
 Detailed snapshots: [14, 15, 23, 24, 29, 30, 31, 33, 34, 41, 54, 60, 61, 69, 70, 71, 72, 73, 74, 80, 81, 82, 83, 84, 85, 86, 87, 88, 89, 90, 91, 92, 94, 95, 96, 97, 98 (peak)]

--------------------------------------------------------------------------------
  n        time(i)         total(B)   useful-heap(B) extra-heap(B)    stacks(B)
--------------------------------------------------------------------------------
  0              0                0                0             0            0
  1      5,086,703          118,688           83,956        34,732            0
  2     11,061,191          114,320           81,772        32,548            0
  3     14,926,847          110,728           79,984        30,744            0
  4     17,628,591          107,568           78,412        29,156            0
  5     22,054,812           97,792           73,996        23,796            0
  6     26,343,100          172,264          123,992        48,272            0
  7     30,308,437          169,720          122,720        47,000            0
  8     35,466,814          165,168          120,452        44,716            0
  9     39,383,950          161,088          118,412        42,676            0
 10     45,548,151          151,560          113,848        37,712            0
 11     51,541,415          244,424          188,512        55,912            0
 12     54,674,050          244,688          188,740        55,948            0
 13     57,946,360          239,032          186,016        53,016            0
 14     62,653,437          275,360          215,936        59,424            0
78.42% (215,936B) (heap allocation functions) malloc/new/new[], --alloc-fns, etc.
->44.30% (121,984B) 0x402707: cdsl_dyn_array_enqueue (in /home/notis/gitlab/embedded/DDTR/DRR/bin/drrDLLDYN)
| ->44.30% (121,984B) 0x400ECA: insert_packet (in /home/notis/gitlab/embedded/DDTR/DRR/bin/drrDLLDYN)
|   ->44.30% (121,984B) 0x400BF5: main (in /home/notis/gitlab/embedded/DDTR/DRR/bin/drrDLLDYN)
|     
->13.32% (36,672B) 0x400CF5: get_next_packet (in /home/notis/gitlab/embedded/DDTR/DRR/bin/drrDLLDYN)
| ->13.32% (36,672B) 0x400BC7: main (in /home/notis/gitlab/embedded/DDTR/DRR/bin/drrDLLDYN)
|   
->12.37% (34,056B) 0x40259B: cdsl_dyn_array_init (in /home/notis/gitlab/embedded/DDTR/DRR/bin/drrDLLDYN)
| ->12.37% (34,056B) 0x400E16: find_node (in /home/notis/gitlab/embedded/DDTR/DRR/bin/drrDLLDYN)
|   ->12.37% (34,056B) 0x400BDE: main (in /home/notis/gitlab/embedded/DDTR/DRR/bin/drrDLLDYN)
|     
->03.37% (9,288B) 0x400DDD: find_node (in /home/notis/gitlab/embedded/DDTR/DRR/bin/drrDLLDYN)
| ->03.37% (9,288B) 0x400BDE: main (in /home/notis/gitlab/embedded/DDTR/DRR/bin/drrDLLDYN)
|   
->03.37% (9,288B) 0x402423: cdsl_deque_list_lock_based_pthread_enqueue (in /home/notis/gitlab/embedded/DDTR/DRR/bin/drrDLLDYN)
| ->03.37% (9,288B) 0x400E41: find_node (in /home/notis/gitlab/embedded/DDTR/DRR/bin/drrDLLDYN)
|   ->03.37% (9,288B) 0x400BDE: main (in /home/notis/gitlab/embedded/DDTR/DRR/bin/drrDLLDYN)
|     
->01.59% (4,384B) 0x4025CA: cdsl_dyn_array_init (in /home/notis/gitlab/embedded/DDTR/DRR/bin/drrDLLDYN)
| ->01.59% (4,384B) 0x400E16: find_node (in /home/notis/gitlab/embedded/DDTR/DRR/bin/drrDLLDYN)
|   ->01.59% (4,384B) 0x400BDE: main (in /home/notis/gitlab/embedded/DDTR/DRR/bin/drrDLLDYN)
|     
->00.10% (264B) in 1+ places, all below ms_print's threshold (01.00%)

--------------------------------------------------------------------------------
  n        time(i)         total(B)   useful-heap(B) extra-heap(B)    stacks(B)
--------------------------------------------------------------------------------
 15     67,289,372          342,632          268,228        74,404            0
78.28% (268,228B) (heap allocation functions) malloc/new/new[], --alloc-fns, etc.
->43.65% (149,568B) 0x402707: cdsl_dyn_array_enqueue (in /home/notis/gitlab/embedded/DDTR/DRR/bin/drrDLLDYN)
| ->43.65% (149,568B) 0x400ECA: insert_packet (in /home/notis/gitlab/embedded/DDTR/DRR/bin/drrDLLDYN)
|   ->43.65% (149,568B) 0x400BF5: main (in /home/notis/gitlab/embedded/DDTR/DRR/bin/drrDLLDYN)
|     
->13.28% (45,492B) 0x400CF5: get_next_packet (in /home/notis/gitlab/embedded/DDTR/DRR/bin/drrDLLDYN)
| ->13.28% (45,492B) 0x400BC7: main (in /home/notis/gitlab/embedded/DDTR/DRR/bin/drrDLLDYN)
|   
->12.66% (43,384B) 0x40259B: cdsl_dyn_array_init (in /home/notis/gitlab/embedded/DDTR/DRR/bin/drrDLLDYN)
| ->12.66% (43,384B) 0x400E16: find_node (in /home/notis/gitlab/embedded/DDTR/DRR/bin/drrDLLDYN)
|   ->12.66% (43,384B) 0x400BDE: main (in /home/notis/gitlab/embedded/DDTR/DRR/bin/drrDLLDYN)
|     
->03.45% (11,832B) 0x400DDD: find_node (in /home/notis/gitlab/embedded/DDTR/DRR/bin/drrDLLDYN)
| ->03.45% (11,832B) 0x400BDE: main (in /home/notis/gitlab/embedded/DDTR/DRR/bin/drrDLLDYN)
|   
->03.45% (11,832B) 0x402423: cdsl_deque_list_lock_based_pthread_enqueue (in /home/notis/gitlab/embedded/DDTR/DRR/bin/drrDLLDYN)
| ->03.45% (11,832B) 0x400E41: find_node (in /home/notis/gitlab/embedded/DDTR/DRR/bin/drrDLLDYN)
|   ->03.45% (11,832B) 0x400BDE: main (in /home/notis/gitlab/embedded/DDTR/DRR/bin/drrDLLDYN)
|     
->01.71% (5,856B) 0x4025CA: cdsl_dyn_array_init (in /home/notis/gitlab/embedded/DDTR/DRR/bin/drrDLLDYN)
| ->01.71% (5,856B) 0x400E16: find_node (in /home/notis/gitlab/embedded/DDTR/DRR/bin/drrDLLDYN)
|   ->01.71% (5,856B) 0x400BDE: main (in /home/notis/gitlab/embedded/DDTR/DRR/bin/drrDLLDYN)
|     
->00.08% (264B) in 1+ places, all below ms_print's threshold (01.00%)

--------------------------------------------------------------------------------
  n        time(i)         total(B)   useful-heap(B) extra-heap(B)    stacks(B)
--------------------------------------------------------------------------------
 16     70,571,042          337,616          264,716        72,900            0
 17     75,461,435          404,576          312,396        92,180            0
 18     79,950,115          401,200          310,716        90,484            0
 19     86,192,419          395,088          307,668        87,420            0
 20     90,626,592          387,408          303,828        83,580            0
 21     96,390,282          421,624          329,992        91,632            0
 22     99,948,221          414,720          326,548        88,172            0
 23    105,065,686          445,888          353,096        92,792            0
79.19% (353,096B) (heap allocation functions) malloc/new/new[], --alloc-fns, etc.
->47.02% (209,664B) 0x402707: cdsl_dyn_array_enqueue (in /home/notis/gitlab/embedded/DDTR/DRR/bin/drrDLLDYN)
| ->47.02% (209,664B) 0x400ECA: insert_packet (in /home/notis/gitlab/embedded/DDTR/DRR/bin/drrDLLDYN)
|   ->47.02% (209,664B) 0x400BF5: main (in /home/notis/gitlab/embedded/DDTR/DRR/bin/drrDLLDYN)
|     
->13.23% (58,992B) 0x400CF5: get_next_packet (in /home/notis/gitlab/embedded/DDTR/DRR/bin/drrDLLDYN)
| ->13.23% (58,992B) 0x400BC7: main (in /home/notis/gitlab/embedded/DDTR/DRR/bin/drrDLLDYN)
|   
->11.25% (50,160B) 0x40259B: cdsl_dyn_array_init (in /home/notis/gitlab/embedded/DDTR/DRR/bin/drrDLLDYN)
| ->11.25% (50,160B) 0x400E16: find_node (in /home/notis/gitlab/embedded/DDTR/DRR/bin/drrDLLDYN)
|   ->11.25% (50,160B) 0x400BDE: main (in /home/notis/gitlab/embedded/DDTR/DRR/bin/drrDLLDYN)
|     
->03.07% (13,680B) 0x400DDD: find_node (in /home/notis/gitlab/embedded/DDTR/DRR/bin/drrDLLDYN)
| ->03.07% (13,680B) 0x400BDE: main (in /home/notis/gitlab/embedded/DDTR/DRR/bin/drrDLLDYN)
|   
->03.07% (13,680B) 0x402423: cdsl_deque_list_lock_based_pthread_enqueue (in /home/notis/gitlab/embedded/DDTR/DRR/bin/drrDLLDYN)
| ->03.07% (13,680B) 0x400E41: find_node (in /home/notis/gitlab/embedded/DDTR/DRR/bin/drrDLLDYN)
|   ->03.07% (13,680B) 0x400BDE: main (in /home/notis/gitlab/embedded/DDTR/DRR/bin/drrDLLDYN)
|     
->01.49% (6,656B) 0x4025CA: cdsl_dyn_array_init (in /home/notis/gitlab/embedded/DDTR/DRR/bin/drrDLLDYN)
| ->01.49% (6,656B) 0x400E16: find_node (in /home/notis/gitlab/embedded/DDTR/DRR/bin/drrDLLDYN)
|   ->01.49% (6,656B) 0x400BDE: main (in /home/notis/gitlab/embedded/DDTR/DRR/bin/drrDLLDYN)
|     
->00.06% (264B) in 1+ places, all below ms_print's threshold (01.00%)

--------------------------------------------------------------------------------
  n        time(i)         total(B)   useful-heap(B) extra-heap(B)    stacks(B)
--------------------------------------------------------------------------------
 24    109,437,317          493,848          392,128       101,720            0
79.40% (392,128B) (heap allocation functions) malloc/new/new[], --alloc-fns, etc.
->47.15% (232,832B) 0x402707: cdsl_dyn_array_enqueue (in /home/notis/gitlab/embedded/DDTR/DRR/bin/drrDLLDYN)
| ->47.15% (232,832B) 0x400ECA: insert_packet (in /home/notis/gitlab/embedded/DDTR/DRR/bin/drrDLLDYN)
|   ->47.15% (232,832B) 0x400BF5: main (in /home/notis/gitlab/embedded/DDTR/DRR/bin/drrDLLDYN)
|     
->12.75% (62,952B) 0x400CF5: get_next_packet (in /home/notis/gitlab/embedded/DDTR/DRR/bin/drrDLLDYN)
| ->12.75% (62,952B) 0x400BC7: main (in /home/notis/gitlab/embedded/DDTR/DRR/bin/drrDLLDYN)
|   
->11.65% (57,552B) 0x40259B: cdsl_dyn_array_init (in /home/notis/gitlab/embedded/DDTR/DRR/bin/drrDLLDYN)
| ->11.65% (57,552B) 0x400E16: find_node (in /home/notis/gitlab/embedded/DDTR/DRR/bin/drrDLLDYN)
|   ->11.65% (57,552B) 0x400BDE: main (in /home/notis/gitlab/embedded/DDTR/DRR/bin/drrDLLDYN)
|     
->03.18% (15,696B) 0x400DDD: find_node (in /home/notis/gitlab/embedded/DDTR/DRR/bin/drrDLLDYN)
| ->03.18% (15,696B) 0x400BDE: main (in /home/notis/gitlab/embedded/DDTR/DRR/bin/drrDLLDYN)
|   
->03.18% (15,696B) 0x402423: cdsl_deque_list_lock_based_pthread_enqueue (in /home/notis/gitlab/embedded/DDTR/DRR/bin/drrDLLDYN)
| ->03.18% (15,696B) 0x400E41: find_node (in /home/notis/gitlab/embedded/DDTR/DRR/bin/drrDLLDYN)
|   ->03.18% (15,696B) 0x400BDE: main (in /home/notis/gitlab/embedded/DDTR/DRR/bin/drrDLLDYN)
|     
->01.44% (7,136B) 0x4025CA: cdsl_dyn_array_init (in /home/notis/gitlab/embedded/DDTR/DRR/bin/drrDLLDYN)
| ->01.44% (7,136B) 0x400E16: find_node (in /home/notis/gitlab/embedded/DDTR/DRR/bin/drrDLLDYN)
|   ->01.44% (7,136B) 0x400BDE: main (in /home/notis/gitlab/embedded/DDTR/DRR/bin/drrDLLDYN)
|     
->00.05% (264B) in 1+ places, all below ms_print's threshold (01.00%)

--------------------------------------------------------------------------------
  n        time(i)         total(B)   useful-heap(B) extra-heap(B)    stacks(B)
--------------------------------------------------------------------------------
 25    114,133,049          533,656          419,720       113,936            0
 26    116,809,813          529,368          417,584       111,784            0
 27    120,476,324          559,280          436,700       122,580            0
 28    124,506,512          553,936          434,036       119,900            0
 29    128,468,434          563,280          443,840       119,440            0
78.80% (443,840B) (heap allocation functions) malloc/new/new[], --alloc-fns, etc.
->46.91% (264,256B) 0x402707: cdsl_dyn_array_enqueue (in /home/notis/gitlab/embedded/DDTR/DRR/bin/drrDLLDYN)
| ->46.91% (264,256B) 0x400ECA: insert_packet (in /home/notis/gitlab/embedded/DDTR/DRR/bin/drrDLLDYN)
|   ->46.91% (264,256B) 0x400BF5: main (in /home/notis/gitlab/embedded/DDTR/DRR/bin/drrDLLDYN)
|     
->13.95% (78,600B) 0x400CF5: get_next_packet (in /home/notis/gitlab/embedded/DDTR/DRR/bin/drrDLLDYN)
| ->13.95% (78,600B) 0x400BC7: main (in /home/notis/gitlab/embedded/DDTR/DRR/bin/drrDLLDYN)
|   
->10.72% (60,368B) 0x40259B: cdsl_dyn_array_init (in /home/notis/gitlab/embedded/DDTR/DRR/bin/drrDLLDYN)
| ->10.72% (60,368B) 0x400E16: find_node (in /home/notis/gitlab/embedded/DDTR/DRR/bin/drrDLLDYN)
|   ->10.72% (60,368B) 0x400BDE: main (in /home/notis/gitlab/embedded/DDTR/DRR/bin/drrDLLDYN)
|     
->02.92% (16,464B) 0x400DDD: find_node (in /home/notis/gitlab/embedded/DDTR/DRR/bin/drrDLLDYN)
| ->02.92% (16,464B) 0x400BDE: main (in /home/notis/gitlab/embedded/DDTR/DRR/bin/drrDLLDYN)
|   
->02.92% (16,464B) 0x402423: cdsl_deque_list_lock_based_pthread_enqueue (in /home/notis/gitlab/embedded/DDTR/DRR/bin/drrDLLDYN)
| ->02.92% (16,464B) 0x400E41: find_node (in /home/notis/gitlab/embedded/DDTR/DRR/bin/drrDLLDYN)
|   ->02.92% (16,464B) 0x400BDE: main (in /home/notis/gitlab/embedded/DDTR/DRR/bin/drrDLLDYN)
|     
->01.32% (7,424B) 0x4025CA: cdsl_dyn_array_init (in /home/notis/gitlab/embedded/DDTR/DRR/bin/drrDLLDYN)
| ->01.32% (7,424B) 0x400E16: find_node (in /home/notis/gitlab/embedded/DDTR/DRR/bin/drrDLLDYN)
|   ->01.32% (7,424B) 0x400BDE: main (in /home/notis/gitlab/embedded/DDTR/DRR/bin/drrDLLDYN)
|     
->00.05% (264B) in 1+ places, all below ms_print's threshold (01.00%)

--------------------------------------------------------------------------------
  n        time(i)         total(B)   useful-heap(B) extra-heap(B)    stacks(B)
--------------------------------------------------------------------------------
 30    131,889,419          626,480          494,688       131,792            0
78.96% (494,688B) (heap allocation functions) malloc/new/new[], --alloc-fns, etc.
->45.96% (287,936B) 0x402707: cdsl_dyn_array_enqueue (in /home/notis/gitlab/embedded/DDTR/DRR/bin/drrDLLDYN)
| ->45.96% (287,936B) 0x400ECA: insert_packet (in /home/notis/gitlab/embedded/DDTR/DRR/bin/drrDLLDYN)
|   ->45.96% (287,936B) 0x400BF5: main (in /home/notis/gitlab/embedded/DDTR/DRR/bin/drrDLLDYN)
|     
->13.01% (81,528B) 0x400CF5: get_next_packet (in /home/notis/gitlab/embedded/DDTR/DRR/bin/drrDLLDYN)
| ->13.01% (81,528B) 0x400BC7: main (in /home/notis/gitlab/embedded/DDTR/DRR/bin/drrDLLDYN)
|   
->11.91% (74,624B) 0x40259B: cdsl_dyn_array_init (in /home/notis/gitlab/embedded/DDTR/DRR/bin/drrDLLDYN)
| ->11.91% (74,624B) 0x400E16: find_node (in /home/notis/gitlab/embedded/DDTR/DRR/bin/drrDLLDYN)
|   ->11.91% (74,624B) 0x400BDE: main (in /home/notis/gitlab/embedded/DDTR/DRR/bin/drrDLLDYN)
|     
->03.25% (20,352B) 0x400DDD: find_node (in /home/notis/gitlab/embedded/DDTR/DRR/bin/drrDLLDYN)
| ->03.25% (20,352B) 0x400BDE: main (in /home/notis/gitlab/embedded/DDTR/DRR/bin/drrDLLDYN)
|   
->03.25% (20,352B) 0x402423: cdsl_deque_list_lock_based_pthread_enqueue (in /home/notis/gitlab/embedded/DDTR/DRR/bin/drrDLLDYN)
| ->03.25% (20,352B) 0x400E41: find_node (in /home/notis/gitlab/embedded/DDTR/DRR/bin/drrDLLDYN)
|   ->03.25% (20,352B) 0x400BDE: main (in /home/notis/gitlab/embedded/DDTR/DRR/bin/drrDLLDYN)
|     
->01.54% (9,632B) 0x4025CA: cdsl_dyn_array_init (in /home/notis/gitlab/embedded/DDTR/DRR/bin/drrDLLDYN)
| ->01.54% (9,632B) 0x400E16: find_node (in /home/notis/gitlab/embedded/DDTR/DRR/bin/drrDLLDYN)
|   ->01.54% (9,632B) 0x400BDE: main (in /home/notis/gitlab/embedded/DDTR/DRR/bin/drrDLLDYN)
|     
->00.04% (264B) in 1+ places, all below ms_print's threshold (01.00%)

--------------------------------------------------------------------------------
  n        time(i)         total(B)   useful-heap(B) extra-heap(B)    stacks(B)
--------------------------------------------------------------------------------
 31    137,322,678          751,840          579,348       172,492            0
77.06% (579,348B) (heap allocation functions) malloc/new/new[], --alloc-fns, etc.
->43.49% (326,976B) 0x402707: cdsl_dyn_array_enqueue (in /home/notis/gitlab/embedded/DDTR/DRR/bin/drrDLLDYN)
| ->43.49% (326,976B) 0x400ECA: insert_packet (in /home/notis/gitlab/embedded/DDTR/DRR/bin/drrDLLDYN)
|   ->43.49% (326,976B) 0x400BF5: main (in /home/notis/gitlab/embedded/DDTR/DRR/bin/drrDLLDYN)
|     
->15.82% (118,956B) 0x400CF5: get_next_packet (in /home/notis/gitlab/embedded/DDTR/DRR/bin/drrDLLDYN)
| ->15.82% (118,956B) 0x400BC7: main (in /home/notis/gitlab/embedded/DDTR/DRR/bin/drrDLLDYN)
|   
->10.58% (79,552B) 0x40259B: cdsl_dyn_array_init (in /home/notis/gitlab/embedded/DDTR/DRR/bin/drrDLLDYN)
| ->10.58% (79,552B) 0x400E16: find_node (in /home/notis/gitlab/embedded/DDTR/DRR/bin/drrDLLDYN)
|   ->10.58% (79,552B) 0x400BDE: main (in /home/notis/gitlab/embedded/DDTR/DRR/bin/drrDLLDYN)
|     
->02.89% (21,696B) 0x400DDD: find_node (in /home/notis/gitlab/embedded/DDTR/DRR/bin/drrDLLDYN)
| ->02.89% (21,696B) 0x400BDE: main (in /home/notis/gitlab/embedded/DDTR/DRR/bin/drrDLLDYN)
|   
->02.89% (21,696B) 0x402423: cdsl_deque_list_lock_based_pthread_enqueue (in /home/notis/gitlab/embedded/DDTR/DRR/bin/drrDLLDYN)
| ->02.89% (21,696B) 0x400E41: find_node (in /home/notis/gitlab/embedded/DDTR/DRR/bin/drrDLLDYN)
|   ->02.89% (21,696B) 0x400BDE: main (in /home/notis/gitlab/embedded/DDTR/DRR/bin/drrDLLDYN)
|     
->01.36% (10,208B) 0x4025CA: cdsl_dyn_array_init (in /home/notis/gitlab/embedded/DDTR/DRR/bin/drrDLLDYN)
| ->01.36% (10,208B) 0x400E16: find_node (in /home/notis/gitlab/embedded/DDTR/DRR/bin/drrDLLDYN)
|   ->01.36% (10,208B) 0x400BDE: main (in /home/notis/gitlab/embedded/DDTR/DRR/bin/drrDLLDYN)
|     
->00.04% (264B) in 1+ places, all below ms_print's threshold (01.00%)

--------------------------------------------------------------------------------
  n        time(i)         total(B)   useful-heap(B) extra-heap(B)    stacks(B)
--------------------------------------------------------------------------------
 32    140,253,990          763,672          585,264       178,408            0
 33    145,174,600          852,120          654,092       198,028            0
76.76% (654,092B) (heap allocation functions) malloc/new/new[], --alloc-fns, etc.
->44.14% (376,128B) 0x402707: cdsl_dyn_array_enqueue (in /home/notis/gitlab/embedded/DDTR/DRR/bin/drrDLLDYN)
| ->44.14% (376,128B) 0x400ECA: insert_packet (in /home/notis/gitlab/embedded/DDTR/DRR/bin/drrDLLDYN)
|   ->44.14% (376,128B) 0x400BF5: main (in /home/notis/gitlab/embedded/DDTR/DRR/bin/drrDLLDYN)
|     
->16.93% (144,276B) 0x400CF5: get_next_packet (in /home/notis/gitlab/embedded/DDTR/DRR/bin/drrDLLDYN)
| ->16.93% (144,276B) 0x400BC7: main (in /home/notis/gitlab/embedded/DDTR/DRR/bin/drrDLLDYN)
|   
->09.36% (79,728B) 0x40259B: cdsl_dyn_array_init (in /home/notis/gitlab/embedded/DDTR/DRR/bin/drrDLLDYN)
| ->09.36% (79,728B) 0x400E16: find_node (in /home/notis/gitlab/embedded/DDTR/DRR/bin/drrDLLDYN)
|   ->09.36% (79,728B) 0x400BDE: main (in /home/notis/gitlab/embedded/DDTR/DRR/bin/drrDLLDYN)
|     
->02.55% (21,744B) 0x400DDD: find_node (in /home/notis/gitlab/embedded/DDTR/DRR/bin/drrDLLDYN)
| ->02.55% (21,744B) 0x400BDE: main (in /home/notis/gitlab/embedded/DDTR/DRR/bin/drrDLLDYN)
|   
->02.55% (21,744B) 0x402423: cdsl_deque_list_lock_based_pthread_enqueue (in /home/notis/gitlab/embedded/DDTR/DRR/bin/drrDLLDYN)
| ->02.55% (21,744B) 0x400E41: find_node (in /home/notis/gitlab/embedded/DDTR/DRR/bin/drrDLLDYN)
|   ->02.55% (21,744B) 0x400BDE: main (in /home/notis/gitlab/embedded/DDTR/DRR/bin/drrDLLDYN)
|     
->01.20% (10,208B) 0x4025CA: cdsl_dyn_array_init (in /home/notis/gitlab/embedded/DDTR/DRR/bin/drrDLLDYN)
| ->01.20% (10,208B) 0x400E16: find_node (in /home/notis/gitlab/embedded/DDTR/DRR/bin/drrDLLDYN)
|   ->01.20% (10,208B) 0x400BDE: main (in /home/notis/gitlab/embedded/DDTR/DRR/bin/drrDLLDYN)
|     
->00.03% (264B) in 1+ places, all below ms_print's threshold (01.00%)

--------------------------------------------------------------------------------
  n        time(i)         total(B)   useful-heap(B) extra-heap(B)    stacks(B)
--------------------------------------------------------------------------------
 34    150,311,508          865,512          660,788       204,724            0
76.35% (660,788B) (heap allocation functions) malloc/new/new[], --alloc-fns, etc.
->43.46% (376,128B) 0x402707: cdsl_dyn_array_enqueue (in /home/notis/gitlab/embedded/DDTR/DRR/bin/drrDLLDYN)
| ->43.46% (376,128B) 0x400ECA: insert_packet (in /home/notis/gitlab/embedded/DDTR/DRR/bin/drrDLLDYN)
|   ->43.46% (376,128B) 0x400BF5: main (in /home/notis/gitlab/embedded/DDTR/DRR/bin/drrDLLDYN)
|     
->17.44% (150,972B) 0x400CF5: get_next_packet (in /home/notis/gitlab/embedded/DDTR/DRR/bin/drrDLLDYN)
| ->17.44% (150,972B) 0x400BC7: main (in /home/notis/gitlab/embedded/DDTR/DRR/bin/drrDLLDYN)
|   
->09.21% (79,728B) 0x40259B: cdsl_dyn_array_init (in /home/notis/gitlab/embedded/DDTR/DRR/bin/drrDLLDYN)
| ->09.21% (79,728B) 0x400E16: find_node (in /home/notis/gitlab/embedded/DDTR/DRR/bin/drrDLLDYN)
|   ->09.21% (79,728B) 0x400BDE: main (in /home/notis/gitlab/embedded/DDTR/DRR/bin/drrDLLDYN)
|     
->02.51% (21,744B) 0x400DDD: find_node (in /home/notis/gitlab/embedded/DDTR/DRR/bin/drrDLLDYN)
| ->02.51% (21,744B) 0x400BDE: main (in /home/notis/gitlab/embedded/DDTR/DRR/bin/drrDLLDYN)
|   
->02.51% (21,744B) 0x402423: cdsl_deque_list_lock_based_pthread_enqueue (in /home/notis/gitlab/embedded/DDTR/DRR/bin/drrDLLDYN)
| ->02.51% (21,744B) 0x400E41: find_node (in /home/notis/gitlab/embedded/DDTR/DRR/bin/drrDLLDYN)
|   ->02.51% (21,744B) 0x400BDE: main (in /home/notis/gitlab/embedded/DDTR/DRR/bin/drrDLLDYN)
|     
->01.18% (10,208B) 0x4025CA: cdsl_dyn_array_init (in /home/notis/gitlab/embedded/DDTR/DRR/bin/drrDLLDYN)
| ->01.18% (10,208B) 0x400E16: find_node (in /home/notis/gitlab/embedded/DDTR/DRR/bin/drrDLLDYN)
|   ->01.18% (10,208B) 0x400BDE: main (in /home/notis/gitlab/embedded/DDTR/DRR/bin/drrDLLDYN)
|     
->00.03% (264B) in 1+ places, all below ms_print's threshold (01.00%)

--------------------------------------------------------------------------------
  n        time(i)         total(B)   useful-heap(B) extra-heap(B)    stacks(B)
--------------------------------------------------------------------------------
 35    153,500,133          873,816          660,840       212,976            0
 36    159,748,837          872,472          660,168       212,304            0
 37    162,998,317          871,752          659,808       211,944            0
 38    169,292,077          870,312          659,088       211,224            0
 39    172,536,877          869,544          658,704       210,840            0
 40    178,793,005          867,992          657,936       210,056            0
 41    181,989,957          867,176          657,528       209,648            0
75.82% (657,528B) (heap allocation functions) malloc/new/new[], --alloc-fns, etc.
->42.43% (367,936B) 0x402707: cdsl_dyn_array_enqueue (in /home/notis/gitlab/embedded/DDTR/DRR/bin/drrDLLDYN)
| ->42.43% (367,936B) 0x400ECA: insert_packet (in /home/notis/gitlab/embedded/DDTR/DRR/bin/drrDLLDYN)
|   ->42.43% (367,936B) 0x400BF5: main (in /home/notis/gitlab/embedded/DDTR/DRR/bin/drrDLLDYN)
|     
->17.98% (155,904B) 0x400CF5: get_next_packet (in /home/notis/gitlab/embedded/DDTR/DRR/bin/drrDLLDYN)
| ->17.98% (155,904B) 0x400BC7: main (in /home/notis/gitlab/embedded/DDTR/DRR/bin/drrDLLDYN)
|   
->09.19% (79,728B) 0x40259B: cdsl_dyn_array_init (in /home/notis/gitlab/embedded/DDTR/DRR/bin/drrDLLDYN)
| ->09.19% (79,728B) 0x400E16: find_node (in /home/notis/gitlab/embedded/DDTR/DRR/bin/drrDLLDYN)
|   ->09.19% (79,728B) 0x400BDE: main (in /home/notis/gitlab/embedded/DDTR/DRR/bin/drrDLLDYN)
|     
->02.51% (21,744B) 0x400DDD: find_node (in /home/notis/gitlab/embedded/DDTR/DRR/bin/drrDLLDYN)
| ->02.51% (21,744B) 0x400BDE: main (in /home/notis/gitlab/embedded/DDTR/DRR/bin/drrDLLDYN)
|   
->02.51% (21,744B) 0x402423: cdsl_deque_list_lock_based_pthread_enqueue (in /home/notis/gitlab/embedded/DDTR/DRR/bin/drrDLLDYN)
| ->02.51% (21,744B) 0x400E41: find_node (in /home/notis/gitlab/embedded/DDTR/DRR/bin/drrDLLDYN)
|   ->02.51% (21,744B) 0x400BDE: main (in /home/notis/gitlab/embedded/DDTR/DRR/bin/drrDLLDYN)
|     
->01.18% (10,208B) 0x4025CA: cdsl_dyn_array_init (in /home/notis/gitlab/embedded/DDTR/DRR/bin/drrDLLDYN)
| ->01.18% (10,208B) 0x400E16: find_node (in /home/notis/gitlab/embedded/DDTR/DRR/bin/drrDLLDYN)
|   ->01.18% (10,208B) 0x400BDE: main (in /home/notis/gitlab/embedded/DDTR/DRR/bin/drrDLLDYN)
|     
->00.03% (264B) in 1+ places, all below ms_print's threshold (01.00%)

--------------------------------------------------------------------------------
  n        time(i)         total(B)   useful-heap(B) extra-heap(B)    stacks(B)
--------------------------------------------------------------------------------
 42    188,295,277          865,496          656,688       208,808            0
 43    192,990,520          864,248          656,064       208,184            0
 44    196,100,782          863,336          655,608       207,728            0
 45    200,864,089          861,872          654,876       206,996            0
 46    205,557,657          860,336          654,108       206,228            0
 47    211,768,869          858,296          653,088       205,208            0
 48    214,936,377          857,072          652,476       204,596            0
 49    221,096,539          854,504          651,192       203,312            0
 50    223,818,580          853,280          650,580       202,700            0
 51    226,511,089          851,912          649,896       202,016            0
 52    229,189,589          850,480          649,188       201,292            0
 53    231,898,525          849,064          648,480       200,584            0
 54    234,591,940          847,288          647,592       199,696            0
76.43% (647,592B) (heap allocation functions) malloc/new/new[], --alloc-fns, etc.
->43.43% (367,936B) 0x402707: cdsl_dyn_array_enqueue (in /home/notis/gitlab/embedded/DDTR/DRR/bin/drrDLLDYN)
| ->43.43% (367,936B) 0x400ECA: insert_packet (in /home/notis/gitlab/embedded/DDTR/DRR/bin/drrDLLDYN)
|   ->43.43% (367,936B) 0x400BF5: main (in /home/notis/gitlab/embedded/DDTR/DRR/bin/drrDLLDYN)
|     
->17.23% (145,968B) 0x400CF5: get_next_packet (in /home/notis/gitlab/embedded/DDTR/DRR/bin/drrDLLDYN)
| ->17.23% (145,968B) 0x400BC7: main (in /home/notis/gitlab/embedded/DDTR/DRR/bin/drrDLLDYN)
|   
->09.41% (79,728B) 0x40259B: cdsl_dyn_array_init (in /home/notis/gitlab/embedded/DDTR/DRR/bin/drrDLLDYN)
| ->09.41% (79,728B) 0x400E16: find_node (in /home/notis/gitlab/embedded/DDTR/DRR/bin/drrDLLDYN)
|   ->09.41% (79,728B) 0x400BDE: main (in /home/notis/gitlab/embedded/DDTR/DRR/bin/drrDLLDYN)
|     
->02.57% (21,744B) 0x400DDD: find_node (in /home/notis/gitlab/embedded/DDTR/DRR/bin/drrDLLDYN)
| ->02.57% (21,744B) 0x400BDE: main (in /home/notis/gitlab/embedded/DDTR/DRR/bin/drrDLLDYN)
|   
->02.57% (21,744B) 0x402423: cdsl_deque_list_lock_based_pthread_enqueue (in /home/notis/gitlab/embedded/DDTR/DRR/bin/drrDLLDYN)
| ->02.57% (21,744B) 0x400E41: find_node (in /home/notis/gitlab/embedded/DDTR/DRR/bin/drrDLLDYN)
|   ->02.57% (21,744B) 0x400BDE: main (in /home/notis/gitlab/embedded/DDTR/DRR/bin/drrDLLDYN)
|     
->01.20% (10,208B) 0x4025CA: cdsl_dyn_array_init (in /home/notis/gitlab/embedded/DDTR/DRR/bin/drrDLLDYN)
| ->01.20% (10,208B) 0x400E16: find_node (in /home/notis/gitlab/embedded/DDTR/DRR/bin/drrDLLDYN)
|   ->01.20% (10,208B) 0x400BDE: main (in /home/notis/gitlab/embedded/DDTR/DRR/bin/drrDLLDYN)
|     
->00.03% (264B) in 1+ places, all below ms_print's threshold (01.00%)

--------------------------------------------------------------------------------
  n        time(i)         total(B)   useful-heap(B) extra-heap(B)    stacks(B)
--------------------------------------------------------------------------------
 55    237,271,078          845,256          646,584       198,672            0
 56    239,963,382          843,208          645,632       197,576            0
 57    242,649,342          839,968          644,012       195,956            0
 58    245,333,622          834,256          641,156       193,100            0
 59    248,015,289          848,288          653,876       194,412            0
 60    249,926,206          874,288          670,964       203,324            0
76.74% (670,964B) (heap allocation functions) malloc/new/new[], --alloc-fns, etc.
->43.98% (384,512B) 0x402707: cdsl_dyn_array_enqueue (in /home/notis/gitlab/embedded/DDTR/DRR/bin/drrDLLDYN)
| ->43.98% (384,512B) 0x400ECA: insert_packet (in /home/notis/gitlab/embedded/DDTR/DRR/bin/drrDLLDYN)
|   ->43.98% (384,512B) 0x400BF5: main (in /home/notis/gitlab/embedded/DDTR/DRR/bin/drrDLLDYN)
|     
->16.86% (147,420B) 0x400CF5: get_next_packet (in /home/notis/gitlab/embedded/DDTR/DRR/bin/drrDLLDYN)
| ->16.86% (147,420B) 0x400BC7: main (in /home/notis/gitlab/embedded/DDTR/DRR/bin/drrDLLDYN)
|   
->09.48% (82,896B) 0x40259B: cdsl_dyn_array_init (in /home/notis/gitlab/embedded/DDTR/DRR/bin/drrDLLDYN)
| ->09.48% (82,896B) 0x400E16: find_node (in /home/notis/gitlab/embedded/DDTR/DRR/bin/drrDLLDYN)
|   ->09.48% (82,896B) 0x400BDE: main (in /home/notis/gitlab/embedded/DDTR/DRR/bin/drrDLLDYN)
|     
->02.59% (22,608B) 0x400DDD: find_node (in /home/notis/gitlab/embedded/DDTR/DRR/bin/drrDLLDYN)
| ->02.59% (22,608B) 0x400BDE: main (in /home/notis/gitlab/embedded/DDTR/DRR/bin/drrDLLDYN)
|   
->02.59% (22,608B) 0x402423: cdsl_deque_list_lock_based_pthread_enqueue (in /home/notis/gitlab/embedded/DDTR/DRR/bin/drrDLLDYN)
| ->02.59% (22,608B) 0x400E41: find_node (in /home/notis/gitlab/embedded/DDTR/DRR/bin/drrDLLDYN)
|   ->02.59% (22,608B) 0x400BDE: main (in /home/notis/gitlab/embedded/DDTR/DRR/bin/drrDLLDYN)
|     
->01.22% (10,656B) 0x4025CA: cdsl_dyn_array_init (in /home/notis/gitlab/embedded/DDTR/DRR/bin/drrDLLDYN)
| ->01.22% (10,656B) 0x400E16: find_node (in /home/notis/gitlab/embedded/DDTR/DRR/bin/drrDLLDYN)
|   ->01.22% (10,656B) 0x400BDE: main (in /home/notis/gitlab/embedded/DDTR/DRR/bin/drrDLLDYN)
|     
->00.03% (264B) in 1+ places, all below ms_print's threshold (01.00%)

--------------------------------------------------------------------------------
  n        time(i)         total(B)   useful-heap(B) extra-heap(B)    stacks(B)
--------------------------------------------------------------------------------
 61    250,995,223          901,864          692,940       208,924            0
76.83% (692,940B) (heap allocation functions) malloc/new/new[], --alloc-fns, etc.
->44.45% (400,896B) 0x402707: cdsl_dyn_array_enqueue (in /home/notis/gitlab/embedded/DDTR/DRR/bin/drrDLLDYN)
| ->44.45% (400,896B) 0x400ECA: insert_packet (in /home/notis/gitlab/embedded/DDTR/DRR/bin/drrDLLDYN)
|   ->44.45% (400,896B) 0x400BF5: main (in /home/notis/gitlab/embedded/DDTR/DRR/bin/drrDLLDYN)
|     
->16.97% (153,012B) 0x400CF5: get_next_packet (in /home/notis/gitlab/embedded/DDTR/DRR/bin/drrDLLDYN)
| ->16.97% (153,012B) 0x400BC7: main (in /home/notis/gitlab/embedded/DDTR/DRR/bin/drrDLLDYN)
|   
->09.19% (82,896B) 0x40259B: cdsl_dyn_array_init (in /home/notis/gitlab/embedded/DDTR/DRR/bin/drrDLLDYN)
| ->09.19% (82,896B) 0x400E16: find_node (in /home/notis/gitlab/embedded/DDTR/DRR/bin/drrDLLDYN)
|   ->09.19% (82,896B) 0x400BDE: main (in /home/notis/gitlab/embedded/DDTR/DRR/bin/drrDLLDYN)
|     
->02.51% (22,608B) 0x400DDD: find_node (in /home/notis/gitlab/embedded/DDTR/DRR/bin/drrDLLDYN)
| ->02.51% (22,608B) 0x400BDE: main (in /home/notis/gitlab/embedded/DDTR/DRR/bin/drrDLLDYN)
|   
->02.51% (22,608B) 0x402423: cdsl_deque_list_lock_based_pthread_enqueue (in /home/notis/gitlab/embedded/DDTR/DRR/bin/drrDLLDYN)
| ->02.51% (22,608B) 0x400E41: find_node (in /home/notis/gitlab/embedded/DDTR/DRR/bin/drrDLLDYN)
|   ->02.51% (22,608B) 0x400BDE: main (in /home/notis/gitlab/embedded/DDTR/DRR/bin/drrDLLDYN)
|     
->01.18% (10,656B) 0x4025CA: cdsl_dyn_array_init (in /home/notis/gitlab/embedded/DDTR/DRR/bin/drrDLLDYN)
| ->01.18% (10,656B) 0x400E16: find_node (in /home/notis/gitlab/embedded/DDTR/DRR/bin/drrDLLDYN)
|   ->01.18% (10,656B) 0x400BDE: main (in /home/notis/gitlab/embedded/DDTR/DRR/bin/drrDLLDYN)
|     
->00.03% (264B) in 1+ places, all below ms_print's threshold (01.00%)

--------------------------------------------------------------------------------
  n        time(i)         total(B)   useful-heap(B) extra-heap(B)    stacks(B)
--------------------------------------------------------------------------------
 62    253,678,088          908,944          694,436       214,508            0
 63    256,363,242          906,984          693,464       213,520            0
 64    259,047,983          905,056          692,516       212,540            0
 65    261,734,539          902,488          691,232       211,256            0
 66    264,413,189          899,368          689,672       209,696            0
 67    267,095,603          894,944          687,476       207,468            0
 68    269,788,765          882,952          681,536       201,416            0
 69    271,713,917          913,360          704,520       208,840            0
77.13% (704,520B) (heap allocation functions) malloc/new/new[], --alloc-fns, etc.
->44.96% (410,688B) 0x402707: cdsl_dyn_array_enqueue (in /home/notis/gitlab/embedded/DDTR/DRR/bin/drrDLLDYN)
| ->44.96% (410,688B) 0x400ECA: insert_packet (in /home/notis/gitlab/embedded/DDTR/DRR/bin/drrDLLDYN)
|   ->44.96% (410,688B) 0x400BF5: main (in /home/notis/gitlab/embedded/DDTR/DRR/bin/drrDLLDYN)
|     
->16.60% (151,584B) 0x400CF5: get_next_packet (in /home/notis/gitlab/embedded/DDTR/DRR/bin/drrDLLDYN)
| ->16.60% (151,584B) 0x400BC7: main (in /home/notis/gitlab/embedded/DDTR/DRR/bin/drrDLLDYN)
|   
->09.29% (84,832B) 0x40259B: cdsl_dyn_array_init (in /home/notis/gitlab/embedded/DDTR/DRR/bin/drrDLLDYN)
| ->09.29% (84,832B) 0x400E16: find_node (in /home/notis/gitlab/embedded/DDTR/DRR/bin/drrDLLDYN)
|   ->09.29% (84,832B) 0x400BDE: main (in /home/notis/gitlab/embedded/DDTR/DRR/bin/drrDLLDYN)
|     
->02.53% (23,136B) 0x400DDD: find_node (in /home/notis/gitlab/embedded/DDTR/DRR/bin/drrDLLDYN)
| ->02.53% (23,136B) 0x400BDE: main (in /home/notis/gitlab/embedded/DDTR/DRR/bin/drrDLLDYN)
|   
->02.53% (23,136B) 0x402423: cdsl_deque_list_lock_based_pthread_enqueue (in /home/notis/gitlab/embedded/DDTR/DRR/bin/drrDLLDYN)
| ->02.53% (23,136B) 0x400E41: find_node (in /home/notis/gitlab/embedded/DDTR/DRR/bin/drrDLLDYN)
|   ->02.53% (23,136B) 0x400BDE: main (in /home/notis/gitlab/embedded/DDTR/DRR/bin/drrDLLDYN)
|     
->01.19% (10,880B) 0x4025CA: cdsl_dyn_array_init (in /home/notis/gitlab/embedded/DDTR/DRR/bin/drrDLLDYN)
| ->01.19% (10,880B) 0x400E16: find_node (in /home/notis/gitlab/embedded/DDTR/DRR/bin/drrDLLDYN)
|   ->01.19% (10,880B) 0x400BDE: main (in /home/notis/gitlab/embedded/DDTR/DRR/bin/drrDLLDYN)
|     
->00.03% (264B) in 1+ places, all below ms_print's threshold (01.00%)

--------------------------------------------------------------------------------
  n        time(i)         total(B)   useful-heap(B) extra-heap(B)    stacks(B)
--------------------------------------------------------------------------------
 70    272,979,230          922,616          711,436       211,180            0
77.11% (711,436B) (heap allocation functions) malloc/new/new[], --alloc-fns, etc.
->44.89% (414,144B) 0x402707: cdsl_dyn_array_enqueue (in /home/notis/gitlab/embedded/DDTR/DRR/bin/drrDLLDYN)
| ->44.89% (414,144B) 0x400ECA: insert_packet (in /home/notis/gitlab/embedded/DDTR/DRR/bin/drrDLLDYN)
|   ->44.89% (414,144B) 0x400BF5: main (in /home/notis/gitlab/embedded/DDTR/DRR/bin/drrDLLDYN)
|     
->16.59% (153,108B) 0x400CF5: get_next_packet (in /home/notis/gitlab/embedded/DDTR/DRR/bin/drrDLLDYN)
| ->16.59% (153,108B) 0x400BC7: main (in /home/notis/gitlab/embedded/DDTR/DRR/bin/drrDLLDYN)
|   
->09.33% (86,064B) 0x40259B: cdsl_dyn_array_init (in /home/notis/gitlab/embedded/DDTR/DRR/bin/drrDLLDYN)
| ->09.33% (86,064B) 0x400E16: find_node (in /home/notis/gitlab/embedded/DDTR/DRR/bin/drrDLLDYN)
|   ->09.33% (86,064B) 0x400BDE: main (in /home/notis/gitlab/embedded/DDTR/DRR/bin/drrDLLDYN)
|     
->02.54% (23,472B) 0x400DDD: find_node (in /home/notis/gitlab/embedded/DDTR/DRR/bin/drrDLLDYN)
| ->02.54% (23,472B) 0x400BDE: main (in /home/notis/gitlab/embedded/DDTR/DRR/bin/drrDLLDYN)
|   
->02.54% (23,472B) 0x402423: cdsl_deque_list_lock_based_pthread_enqueue (in /home/notis/gitlab/embedded/DDTR/DRR/bin/drrDLLDYN)
| ->02.54% (23,472B) 0x400E41: find_node (in /home/notis/gitlab/embedded/DDTR/DRR/bin/drrDLLDYN)
|   ->02.54% (23,472B) 0x400BDE: main (in /home/notis/gitlab/embedded/DDTR/DRR/bin/drrDLLDYN)
|     
->01.18% (10,912B) 0x4025CA: cdsl_dyn_array_init (in /home/notis/gitlab/embedded/DDTR/DRR/bin/drrDLLDYN)
| ->01.18% (10,912B) 0x400E16: find_node (in /home/notis/gitlab/embedded/DDTR/DRR/bin/drrDLLDYN)
|   ->01.18% (10,912B) 0x400BDE: main (in /home/notis/gitlab/embedded/DDTR/DRR/bin/drrDLLDYN)
|     
->00.03% (264B) in 1+ places, all below ms_print's threshold (01.00%)

--------------------------------------------------------------------------------
  n        time(i)         total(B)   useful-heap(B) extra-heap(B)    stacks(B)
--------------------------------------------------------------------------------
 71    273,096,573          932,208          718,816       213,392            0
77.11% (718,816B) (heap allocation functions) malloc/new/new[], --alloc-fns, etc.
->44.86% (418,176B) 0x402707: cdsl_dyn_array_enqueue (in /home/notis/gitlab/embedded/DDTR/DRR/bin/drrDLLDYN)
| ->44.86% (418,176B) 0x400ECA: insert_packet (in /home/notis/gitlab/embedded/DDTR/DRR/bin/drrDLLDYN)
|   ->44.86% (418,176B) 0x400BF5: main (in /home/notis/gitlab/embedded/DDTR/DRR/bin/drrDLLDYN)
|     
->16.58% (154,560B) 0x400CF5: get_next_packet (in /home/notis/gitlab/embedded/DDTR/DRR/bin/drrDLLDYN)
| ->16.58% (154,560B) 0x400BC7: main (in /home/notis/gitlab/embedded/DDTR/DRR/bin/drrDLLDYN)
|   
->09.35% (87,208B) 0x40259B: cdsl_dyn_array_init (in /home/notis/gitlab/embedded/DDTR/DRR/bin/drrDLLDYN)
| ->09.35% (87,208B) 0x400E16: find_node (in /home/notis/gitlab/embedded/DDTR/DRR/bin/drrDLLDYN)
|   ->09.35% (87,208B) 0x400BDE: main (in /home/notis/gitlab/embedded/DDTR/DRR/bin/drrDLLDYN)
|     
->02.55% (23,784B) 0x400DDD: find_node (in /home/notis/gitlab/embedded/DDTR/DRR/bin/drrDLLDYN)
| ->02.55% (23,784B) 0x400BDE: main (in /home/notis/gitlab/embedded/DDTR/DRR/bin/drrDLLDYN)
|   
->02.55% (23,784B) 0x402423: cdsl_deque_list_lock_based_pthread_enqueue (in /home/notis/gitlab/embedded/DDTR/DRR/bin/drrDLLDYN)
| ->02.55% (23,784B) 0x400E41: find_node (in /home/notis/gitlab/embedded/DDTR/DRR/bin/drrDLLDYN)
|   ->02.55% (23,784B) 0x400BDE: main (in /home/notis/gitlab/embedded/DDTR/DRR/bin/drrDLLDYN)
|     
->01.18% (11,040B) 0x4025CA: cdsl_dyn_array_init (in /home/notis/gitlab/embedded/DDTR/DRR/bin/drrDLLDYN)
| ->01.18% (11,040B) 0x400E16: find_node (in /home/notis/gitlab/embedded/DDTR/DRR/bin/drrDLLDYN)
|   ->01.18% (11,040B) 0x400BDE: main (in /home/notis/gitlab/embedded/DDTR/DRR/bin/drrDLLDYN)
|     
->00.03% (264B) in 1+ places, all below ms_print's threshold (01.00%)

--------------------------------------------------------------------------------
  n        time(i)         total(B)   useful-heap(B) extra-heap(B)    stacks(B)
--------------------------------------------------------------------------------
 72    273,215,031          950,656          732,640       218,016            0
77.07% (732,640B) (heap allocation functions) malloc/new/new[], --alloc-fns, etc.
->44.96% (427,392B) 0x402707: cdsl_dyn_array_enqueue (in /home/notis/gitlab/embedded/DDTR/DRR/bin/drrDLLDYN)
| ->44.96% (427,392B) 0x400ECA: insert_packet (in /home/notis/gitlab/embedded/DDTR/DRR/bin/drrDLLDYN)
|   ->44.96% (427,392B) 0x400BF5: main (in /home/notis/gitlab/embedded/DDTR/DRR/bin/drrDLLDYN)
|     
->16.74% (159,168B) 0x400CF5: get_next_packet (in /home/notis/gitlab/embedded/DDTR/DRR/bin/drrDLLDYN)
| ->16.74% (159,168B) 0x400BC7: main (in /home/notis/gitlab/embedded/DDTR/DRR/bin/drrDLLDYN)
|   
->09.17% (87,208B) 0x40259B: cdsl_dyn_array_init (in /home/notis/gitlab/embedded/DDTR/DRR/bin/drrDLLDYN)
| ->09.17% (87,208B) 0x400E16: find_node (in /home/notis/gitlab/embedded/DDTR/DRR/bin/drrDLLDYN)
|   ->09.17% (87,208B) 0x400BDE: main (in /home/notis/gitlab/embedded/DDTR/DRR/bin/drrDLLDYN)
|     
->02.50% (23,784B) 0x400DDD: find_node (in /home/notis/gitlab/embedded/DDTR/DRR/bin/drrDLLDYN)
| ->02.50% (23,784B) 0x400BDE: main (in /home/notis/gitlab/embedded/DDTR/DRR/bin/drrDLLDYN)
|   
->02.50% (23,784B) 0x402423: cdsl_deque_list_lock_based_pthread_enqueue (in /home/notis/gitlab/embedded/DDTR/DRR/bin/drrDLLDYN)
| ->02.50% (23,784B) 0x400E41: find_node (in /home/notis/gitlab/embedded/DDTR/DRR/bin/drrDLLDYN)
|   ->02.50% (23,784B) 0x400BDE: main (in /home/notis/gitlab/embedded/DDTR/DRR/bin/drrDLLDYN)
|     
->01.16% (11,040B) 0x4025CA: cdsl_dyn_array_init (in /home/notis/gitlab/embedded/DDTR/DRR/bin/drrDLLDYN)
| ->01.16% (11,040B) 0x400E16: find_node (in /home/notis/gitlab/embedded/DDTR/DRR/bin/drrDLLDYN)
|   ->01.16% (11,040B) 0x400BDE: main (in /home/notis/gitlab/embedded/DDTR/DRR/bin/drrDLLDYN)
|     
->00.03% (264B) in 1+ places, all below ms_print's threshold (01.00%)

--------------------------------------------------------------------------------
  n        time(i)         total(B)   useful-heap(B) extra-heap(B)    stacks(B)
--------------------------------------------------------------------------------
 73    273,626,572          961,384          739,060       222,324            0
76.87% (739,060B) (heap allocation functions) malloc/new/new[], --alloc-fns, etc.
->44.67% (429,440B) 0x402707: cdsl_dyn_array_enqueue (in /home/notis/gitlab/embedded/DDTR/DRR/bin/drrDLLDYN)
| ->44.67% (429,440B) 0x400ECA: insert_packet (in /home/notis/gitlab/embedded/DDTR/DRR/bin/drrDLLDYN)
|   ->44.67% (429,440B) 0x400BF5: main (in /home/notis/gitlab/embedded/DDTR/DRR/bin/drrDLLDYN)
|     
->17.00% (163,404B) 0x400CF5: get_next_packet (in /home/notis/gitlab/embedded/DDTR/DRR/bin/drrDLLDYN)
| ->17.00% (163,404B) 0x400BC7: main (in /home/notis/gitlab/embedded/DDTR/DRR/bin/drrDLLDYN)
|   
->09.08% (87,296B) 0x40259B: cdsl_dyn_array_init (in /home/notis/gitlab/embedded/DDTR/DRR/bin/drrDLLDYN)
| ->09.08% (87,296B) 0x400E16: find_node (in /home/notis/gitlab/embedded/DDTR/DRR/bin/drrDLLDYN)
|   ->09.08% (87,296B) 0x400BDE: main (in /home/notis/gitlab/embedded/DDTR/DRR/bin/drrDLLDYN)
|     
->02.48% (23,808B) 0x400DDD: find_node (in /home/notis/gitlab/embedded/DDTR/DRR/bin/drrDLLDYN)
| ->02.48% (23,808B) 0x400BDE: main (in /home/notis/gitlab/embedded/DDTR/DRR/bin/drrDLLDYN)
|   
->02.48% (23,808B) 0x402423: cdsl_deque_list_lock_based_pthread_enqueue (in /home/notis/gitlab/embedded/DDTR/DRR/bin/drrDLLDYN)
| ->02.48% (23,808B) 0x400E41: find_node (in /home/notis/gitlab/embedded/DDTR/DRR/bin/drrDLLDYN)
|   ->02.48% (23,808B) 0x400BDE: main (in /home/notis/gitlab/embedded/DDTR/DRR/bin/drrDLLDYN)
|     
->01.15% (11,040B) 0x4025CA: cdsl_dyn_array_init (in /home/notis/gitlab/embedded/DDTR/DRR/bin/drrDLLDYN)
| ->01.15% (11,040B) 0x400E16: find_node (in /home/notis/gitlab/embedded/DDTR/DRR/bin/drrDLLDYN)
|   ->01.15% (11,040B) 0x400BDE: main (in /home/notis/gitlab/embedded/DDTR/DRR/bin/drrDLLDYN)
|     
->00.03% (264B) in 1+ places, all below ms_print's threshold (01.00%)

--------------------------------------------------------------------------------
  n        time(i)         total(B)   useful-heap(B) extra-heap(B)    stacks(B)
--------------------------------------------------------------------------------
 74    273,705,513          973,688          748,276       225,412            0
76.85% (748,276B) (heap allocation functions) malloc/new/new[], --alloc-fns, etc.
->44.74% (435,584B) 0x402707: cdsl_dyn_array_enqueue (in /home/notis/gitlab/embedded/DDTR/DRR/bin/drrDLLDYN)
| ->44.74% (435,584B) 0x400ECA: insert_packet (in /home/notis/gitlab/embedded/DDTR/DRR/bin/drrDLLDYN)
|   ->44.74% (435,584B) 0x400BF5: main (in /home/notis/gitlab/embedded/DDTR/DRR/bin/drrDLLDYN)
|     
->17.10% (166,476B) 0x400CF5: get_next_packet (in /home/notis/gitlab/embedded/DDTR/DRR/bin/drrDLLDYN)
| ->17.10% (166,476B) 0x400BC7: main (in /home/notis/gitlab/embedded/DDTR/DRR/bin/drrDLLDYN)
|   
->08.97% (87,296B) 0x40259B: cdsl_dyn_array_init (in /home/notis/gitlab/embedded/DDTR/DRR/bin/drrDLLDYN)
| ->08.97% (87,296B) 0x400E16: find_node (in /home/notis/gitlab/embedded/DDTR/DRR/bin/drrDLLDYN)
|   ->08.97% (87,296B) 0x400BDE: main (in /home/notis/gitlab/embedded/DDTR/DRR/bin/drrDLLDYN)
|     
->02.45% (23,808B) 0x400DDD: find_node (in /home/notis/gitlab/embedded/DDTR/DRR/bin/drrDLLDYN)
| ->02.45% (23,808B) 0x400BDE: main (in /home/notis/gitlab/embedded/DDTR/DRR/bin/drrDLLDYN)
|   
->02.45% (23,808B) 0x402423: cdsl_deque_list_lock_based_pthread_enqueue (in /home/notis/gitlab/embedded/DDTR/DRR/bin/drrDLLDYN)
| ->02.45% (23,808B) 0x400E41: find_node (in /home/notis/gitlab/embedded/DDTR/DRR/bin/drrDLLDYN)
|   ->02.45% (23,808B) 0x400BDE: main (in /home/notis/gitlab/embedded/DDTR/DRR/bin/drrDLLDYN)
|     
->01.13% (11,040B) 0x4025CA: cdsl_dyn_array_init (in /home/notis/gitlab/embedded/DDTR/DRR/bin/drrDLLDYN)
| ->01.13% (11,040B) 0x400E16: find_node (in /home/notis/gitlab/embedded/DDTR/DRR/bin/drrDLLDYN)
|   ->01.13% (11,040B) 0x400BDE: main (in /home/notis/gitlab/embedded/DDTR/DRR/bin/drrDLLDYN)
|     
->00.03% (264B) in 1+ places, all below ms_print's threshold (01.00%)

--------------------------------------------------------------------------------
  n        time(i)         total(B)   useful-heap(B) extra-heap(B)    stacks(B)
--------------------------------------------------------------------------------
 75    276,398,423          979,504          749,148       230,356            0
 76    279,088,695          977,008          747,900       229,108            0
 77    281,781,057          974,568          746,688       227,880            0
 78    284,460,524          970,848          744,828       226,020            0
 79    287,141,143          963,360          741,156       222,204            0
 80    288,272,663          983,992          758,380       225,612            0
77.07% (758,380B) (heap allocation functions) malloc/new/new[], --alloc-fns, etc.
->44.70% (439,808B) 0x402707: cdsl_dyn_array_enqueue (in /home/notis/gitlab/embedded/DDTR/DRR/bin/drrDLLDYN)
| ->44.70% (439,808B) 0x400ECA: insert_packet (in /home/notis/gitlab/embedded/DDTR/DRR/bin/drrDLLDYN)
|   ->44.70% (439,808B) 0x400BF5: main (in /home/notis/gitlab/embedded/DDTR/DRR/bin/drrDLLDYN)
|     
->16.58% (163,116B) 0x400CF5: get_next_packet (in /home/notis/gitlab/embedded/DDTR/DRR/bin/drrDLLDYN)
| ->16.58% (163,116B) 0x400BC7: main (in /home/notis/gitlab/embedded/DDTR/DRR/bin/drrDLLDYN)
|   
->09.44% (92,840B) 0x40259B: cdsl_dyn_array_init (in /home/notis/gitlab/embedded/DDTR/DRR/bin/drrDLLDYN)
| ->09.44% (92,840B) 0x400E16: find_node (in /home/notis/gitlab/embedded/DDTR/DRR/bin/drrDLLDYN)
|   ->09.44% (92,840B) 0x400BDE: main (in /home/notis/gitlab/embedded/DDTR/DRR/bin/drrDLLDYN)
|     
->02.57% (25,320B) 0x400DDD: find_node (in /home/notis/gitlab/embedded/DDTR/DRR/bin/drrDLLDYN)
| ->02.57% (25,320B) 0x400BDE: main (in /home/notis/gitlab/embedded/DDTR/DRR/bin/drrDLLDYN)
|   
->02.57% (25,320B) 0x402423: cdsl_deque_list_lock_based_pthread_enqueue (in /home/notis/gitlab/embedded/DDTR/DRR/bin/drrDLLDYN)
| ->02.57% (25,320B) 0x400E41: find_node (in /home/notis/gitlab/embedded/DDTR/DRR/bin/drrDLLDYN)
|   ->02.57% (25,320B) 0x400BDE: main (in /home/notis/gitlab/embedded/DDTR/DRR/bin/drrDLLDYN)
|     
->01.19% (11,712B) 0x4025CA: cdsl_dyn_array_init (in /home/notis/gitlab/embedded/DDTR/DRR/bin/drrDLLDYN)
| ->01.19% (11,712B) 0x400E16: find_node (in /home/notis/gitlab/embedded/DDTR/DRR/bin/drrDLLDYN)
|   ->01.19% (11,712B) 0x400BDE: main (in /home/notis/gitlab/embedded/DDTR/DRR/bin/drrDLLDYN)
|     
->00.03% (264B) in 1+ places, all below ms_print's threshold (01.00%)

--------------------------------------------------------------------------------
  n        time(i)         total(B)   useful-heap(B) extra-heap(B)    stacks(B)
--------------------------------------------------------------------------------
 81    289,292,371          995,120          768,088       227,032            0
77.19% (768,088B) (heap allocation functions) malloc/new/new[], --alloc-fns, etc.
->44.88% (446,656B) 0x402707: cdsl_dyn_array_enqueue (in /home/notis/gitlab/embedded/DDTR/DRR/bin/drrDLLDYN)
| ->44.88% (446,656B) 0x400ECA: insert_packet (in /home/notis/gitlab/embedded/DDTR/DRR/bin/drrDLLDYN)
|   ->44.88% (446,656B) 0x400BF5: main (in /home/notis/gitlab/embedded/DDTR/DRR/bin/drrDLLDYN)
|     
->16.41% (163,296B) 0x400CF5: get_next_packet (in /home/notis/gitlab/embedded/DDTR/DRR/bin/drrDLLDYN)
| ->16.41% (163,296B) 0x400BC7: main (in /home/notis/gitlab/embedded/DDTR/DRR/bin/drrDLLDYN)
|   
->09.50% (94,512B) 0x40259B: cdsl_dyn_array_init (in /home/notis/gitlab/embedded/DDTR/DRR/bin/drrDLLDYN)
| ->09.50% (94,512B) 0x400E16: find_node (in /home/notis/gitlab/embedded/DDTR/DRR/bin/drrDLLDYN)
|   ->09.50% (94,512B) 0x400BDE: main (in /home/notis/gitlab/embedded/DDTR/DRR/bin/drrDLLDYN)
|     
->02.59% (25,776B) 0x400DDD: find_node (in /home/notis/gitlab/embedded/DDTR/DRR/bin/drrDLLDYN)
| ->02.59% (25,776B) 0x400BDE: main (in /home/notis/gitlab/embedded/DDTR/DRR/bin/drrDLLDYN)
|   
->02.59% (25,776B) 0x402423: cdsl_deque_list_lock_based_pthread_enqueue (in /home/notis/gitlab/embedded/DDTR/DRR/bin/drrDLLDYN)
| ->02.59% (25,776B) 0x400E41: find_node (in /home/notis/gitlab/embedded/DDTR/DRR/bin/drrDLLDYN)
|   ->02.59% (25,776B) 0x400BDE: main (in /home/notis/gitlab/embedded/DDTR/DRR/bin/drrDLLDYN)
|     
->01.19% (11,808B) 0x4025CA: cdsl_dyn_array_init (in /home/notis/gitlab/embedded/DDTR/DRR/bin/drrDLLDYN)
| ->01.19% (11,808B) 0x400E16: find_node (in /home/notis/gitlab/embedded/DDTR/DRR/bin/drrDLLDYN)
|   ->01.19% (11,808B) 0x400BDE: main (in /home/notis/gitlab/embedded/DDTR/DRR/bin/drrDLLDYN)
|     
->00.03% (264B) in 1+ places, all below ms_print's threshold (01.00%)

--------------------------------------------------------------------------------
  n        time(i)         total(B)   useful-heap(B) extra-heap(B)    stacks(B)
--------------------------------------------------------------------------------
 82    289,994,624        1,008,128          778,560       229,568            0
77.23% (778,560B) (heap allocation functions) malloc/new/new[], --alloc-fns, etc.
->44.90% (452,608B) 0x402707: cdsl_dyn_array_enqueue (in /home/notis/gitlab/embedded/DDTR/DRR/bin/drrDLLDYN)
| ->44.90% (452,608B) 0x400ECA: insert_packet (in /home/notis/gitlab/embedded/DDTR/DRR/bin/drrDLLDYN)
|   ->44.90% (452,608B) 0x400BF5: main (in /home/notis/gitlab/embedded/DDTR/DRR/bin/drrDLLDYN)
|     
->16.30% (164,328B) 0x400CF5: get_next_packet (in /home/notis/gitlab/embedded/DDTR/DRR/bin/drrDLLDYN)
| ->16.30% (164,328B) 0x400BC7: main (in /home/notis/gitlab/embedded/DDTR/DRR/bin/drrDLLDYN)
|   
->09.58% (96,624B) 0x40259B: cdsl_dyn_array_init (in /home/notis/gitlab/embedded/DDTR/DRR/bin/drrDLLDYN)
| ->09.58% (96,624B) 0x400E16: find_node (in /home/notis/gitlab/embedded/DDTR/DRR/bin/drrDLLDYN)
|   ->09.58% (96,624B) 0x400BDE: main (in /home/notis/gitlab/embedded/DDTR/DRR/bin/drrDLLDYN)
|     
->02.61% (26,352B) 0x400DDD: find_node (in /home/notis/gitlab/embedded/DDTR/DRR/bin/drrDLLDYN)
| ->02.61% (26,352B) 0x400BDE: main (in /home/notis/gitlab/embedded/DDTR/DRR/bin/drrDLLDYN)
|   
->02.61% (26,352B) 0x402423: cdsl_deque_list_lock_based_pthread_enqueue (in /home/notis/gitlab/embedded/DDTR/DRR/bin/drrDLLDYN)
| ->02.61% (26,352B) 0x400E41: find_node (in /home/notis/gitlab/embedded/DDTR/DRR/bin/drrDLLDYN)
|   ->02.61% (26,352B) 0x400BDE: main (in /home/notis/gitlab/embedded/DDTR/DRR/bin/drrDLLDYN)
|     
->01.19% (12,032B) 0x4025CA: cdsl_dyn_array_init (in /home/notis/gitlab/embedded/DDTR/DRR/bin/drrDLLDYN)
| ->01.19% (12,032B) 0x400E16: find_node (in /home/notis/gitlab/embedded/DDTR/DRR/bin/drrDLLDYN)
|   ->01.19% (12,032B) 0x400BDE: main (in /home/notis/gitlab/embedded/DDTR/DRR/bin/drrDLLDYN)
|     
->00.03% (264B) in 1+ places, all below ms_print's threshold (01.00%)

--------------------------------------------------------------------------------
  n        time(i)         total(B)   useful-heap(B) extra-heap(B)    stacks(B)
--------------------------------------------------------------------------------
 83    290,849,174        1,018,472          787,508       230,964            0
77.32% (787,508B) (heap allocation functions) malloc/new/new[], --alloc-fns, etc.
->44.88% (457,088B) 0x402707: cdsl_dyn_array_enqueue (in /home/notis/gitlab/embedded/DDTR/DRR/bin/drrDLLDYN)
| ->44.88% (457,088B) 0x400ECA: insert_packet (in /home/notis/gitlab/embedded/DDTR/DRR/bin/drrDLLDYN)
|   ->44.88% (457,088B) 0x400BF5: main (in /home/notis/gitlab/embedded/DDTR/DRR/bin/drrDLLDYN)
|     
->16.07% (163,716B) 0x400CF5: get_next_packet (in /home/notis/gitlab/embedded/DDTR/DRR/bin/drrDLLDYN)
| ->16.07% (163,716B) 0x400BC7: main (in /home/notis/gitlab/embedded/DDTR/DRR/bin/drrDLLDYN)
|   
->09.79% (99,704B) 0x40259B: cdsl_dyn_array_init (in /home/notis/gitlab/embedded/DDTR/DRR/bin/drrDLLDYN)
| ->09.79% (99,704B) 0x400E16: find_node (in /home/notis/gitlab/embedded/DDTR/DRR/bin/drrDLLDYN)
|   ->09.79% (99,704B) 0x400BDE: main (in /home/notis/gitlab/embedded/DDTR/DRR/bin/drrDLLDYN)
|     
->02.67% (27,192B) 0x400DDD: find_node (in /home/notis/gitlab/embedded/DDTR/DRR/bin/drrDLLDYN)
| ->02.67% (27,192B) 0x400BDE: main (in /home/notis/gitlab/embedded/DDTR/DRR/bin/drrDLLDYN)
|   
->02.67% (27,192B) 0x402423: cdsl_deque_list_lock_based_pthread_enqueue (in /home/notis/gitlab/embedded/DDTR/DRR/bin/drrDLLDYN)
| ->02.67% (27,192B) 0x400E41: find_node (in /home/notis/gitlab/embedded/DDTR/DRR/bin/drrDLLDYN)
|   ->02.67% (27,192B) 0x400BDE: main (in /home/notis/gitlab/embedded/DDTR/DRR/bin/drrDLLDYN)
|     
->01.21% (12,352B) 0x4025CA: cdsl_dyn_array_init (in /home/notis/gitlab/embedded/DDTR/DRR/bin/drrDLLDYN)
| ->01.21% (12,352B) 0x400E16: find_node (in /home/notis/gitlab/embedded/DDTR/DRR/bin/drrDLLDYN)
|   ->01.21% (12,352B) 0x400BDE: main (in /home/notis/gitlab/embedded/DDTR/DRR/bin/drrDLLDYN)
|     
->00.03% (264B) in 1+ places, all below ms_print's threshold (01.00%)

--------------------------------------------------------------------------------
  n        time(i)         total(B)   useful-heap(B) extra-heap(B)    stacks(B)
--------------------------------------------------------------------------------
 84    291,210,044        1,028,760          795,956       232,804            0
77.37% (795,956B) (heap allocation functions) malloc/new/new[], --alloc-fns, etc.
->44.81% (460,992B) 0x402707: cdsl_dyn_array_enqueue (in /home/notis/gitlab/embedded/DDTR/DRR/bin/drrDLLDYN)
| ->44.81% (460,992B) 0x400ECA: insert_packet (in /home/notis/gitlab/embedded/DDTR/DRR/bin/drrDLLDYN)
|   ->44.81% (460,992B) 0x400BF5: main (in /home/notis/gitlab/embedded/DDTR/DRR/bin/drrDLLDYN)
|     
->15.93% (163,932B) 0x400CF5: get_next_packet (in /home/notis/gitlab/embedded/DDTR/DRR/bin/drrDLLDYN)
| ->15.93% (163,932B) 0x400BC7: main (in /home/notis/gitlab/embedded/DDTR/DRR/bin/drrDLLDYN)
|   
->09.94% (102,256B) 0x40259B: cdsl_dyn_array_init (in /home/notis/gitlab/embedded/DDTR/DRR/bin/drrDLLDYN)
| ->09.94% (102,256B) 0x400E16: find_node (in /home/notis/gitlab/embedded/DDTR/DRR/bin/drrDLLDYN)
|   ->09.94% (102,256B) 0x400BDE: main (in /home/notis/gitlab/embedded/DDTR/DRR/bin/drrDLLDYN)
|     
->02.71% (27,888B) 0x400DDD: find_node (in /home/notis/gitlab/embedded/DDTR/DRR/bin/drrDLLDYN)
| ->02.71% (27,888B) 0x400BDE: main (in /home/notis/gitlab/embedded/DDTR/DRR/bin/drrDLLDYN)
|   
->02.71% (27,888B) 0x402423: cdsl_deque_list_lock_based_pthread_enqueue (in /home/notis/gitlab/embedded/DDTR/DRR/bin/drrDLLDYN)
| ->02.71% (27,888B) 0x400E41: find_node (in /home/notis/gitlab/embedded/DDTR/DRR/bin/drrDLLDYN)
|   ->02.71% (27,888B) 0x400BDE: main (in /home/notis/gitlab/embedded/DDTR/DRR/bin/drrDLLDYN)
|     
->01.24% (12,736B) 0x4025CA: cdsl_dyn_array_init (in /home/notis/gitlab/embedded/DDTR/DRR/bin/drrDLLDYN)
| ->01.24% (12,736B) 0x400E16: find_node (in /home/notis/gitlab/embedded/DDTR/DRR/bin/drrDLLDYN)
|   ->01.24% (12,736B) 0x400BDE: main (in /home/notis/gitlab/embedded/DDTR/DRR/bin/drrDLLDYN)
|     
->00.03% (264B) in 1+ places, all below ms_print's threshold (01.00%)

--------------------------------------------------------------------------------
  n        time(i)         total(B)   useful-heap(B) extra-heap(B)    stacks(B)
--------------------------------------------------------------------------------
 85    291,555,814        1,039,104          804,360       234,744            0
77.41% (804,360B) (heap allocation functions) malloc/new/new[], --alloc-fns, etc.
->44.68% (464,256B) 0x402707: cdsl_dyn_array_enqueue (in /home/notis/gitlab/embedded/DDTR/DRR/bin/drrDLLDYN)
| ->44.68% (464,256B) 0x400ECA: insert_packet (in /home/notis/gitlab/embedded/DDTR/DRR/bin/drrDLLDYN)
|   ->44.68% (464,256B) 0x400BF5: main (in /home/notis/gitlab/embedded/DDTR/DRR/bin/drrDLLDYN)
|     
->15.78% (163,968B) 0x400CF5: get_next_packet (in /home/notis/gitlab/embedded/DDTR/DRR/bin/drrDLLDYN)
| ->15.78% (163,968B) 0x400BC7: main (in /home/notis/gitlab/embedded/DDTR/DRR/bin/drrDLLDYN)
|   
->10.13% (105,248B) 0x40259B: cdsl_dyn_array_init (in /home/notis/gitlab/embedded/DDTR/DRR/bin/drrDLLDYN)
| ->10.13% (105,248B) 0x400E16: find_node (in /home/notis/gitlab/embedded/DDTR/DRR/bin/drrDLLDYN)
|   ->10.13% (105,248B) 0x400BDE: main (in /home/notis/gitlab/embedded/DDTR/DRR/bin/drrDLLDYN)
|     
->02.76% (28,704B) 0x400DDD: find_node (in /home/notis/gitlab/embedded/DDTR/DRR/bin/drrDLLDYN)
| ->02.76% (28,704B) 0x400BDE: main (in /home/notis/gitlab/embedded/DDTR/DRR/bin/drrDLLDYN)
|   
->02.76% (28,704B) 0x402423: cdsl_deque_list_lock_based_pthread_enqueue (in /home/notis/gitlab/embedded/DDTR/DRR/bin/drrDLLDYN)
| ->02.76% (28,704B) 0x400E41: find_node (in /home/notis/gitlab/embedded/DDTR/DRR/bin/drrDLLDYN)
|   ->02.76% (28,704B) 0x400BDE: main (in /home/notis/gitlab/embedded/DDTR/DRR/bin/drrDLLDYN)
|     
->01.27% (13,216B) 0x4025CA: cdsl_dyn_array_init (in /home/notis/gitlab/embedded/DDTR/DRR/bin/drrDLLDYN)
| ->01.27% (13,216B) 0x400E16: find_node (in /home/notis/gitlab/embedded/DDTR/DRR/bin/drrDLLDYN)
|   ->01.27% (13,216B) 0x400BDE: main (in /home/notis/gitlab/embedded/DDTR/DRR/bin/drrDLLDYN)
|     
->00.03% (264B) in 1+ places, all below ms_print's threshold (01.00%)

--------------------------------------------------------------------------------
  n        time(i)         total(B)   useful-heap(B) extra-heap(B)    stacks(B)
--------------------------------------------------------------------------------
 86    291,743,688        1,049,760          812,856       236,904            0
77.43% (812,856B) (heap allocation functions) malloc/new/new[], --alloc-fns, etc.
->44.51% (467,200B) 0x402707: cdsl_dyn_array_enqueue (in /home/notis/gitlab/embedded/DDTR/DRR/bin/drrDLLDYN)
| ->44.51% (467,200B) 0x400ECA: insert_packet (in /home/notis/gitlab/embedded/DDTR/DRR/bin/drrDLLDYN)
|   ->44.51% (467,200B) 0x400BF5: main (in /home/notis/gitlab/embedded/DDTR/DRR/bin/drrDLLDYN)
|     
->15.63% (164,112B) 0x400CF5: get_next_packet (in /home/notis/gitlab/embedded/DDTR/DRR/bin/drrDLLDYN)
| ->15.63% (164,112B) 0x400BC7: main (in /home/notis/gitlab/embedded/DDTR/DRR/bin/drrDLLDYN)
|   
->10.33% (108,416B) 0x40259B: cdsl_dyn_array_init (in /home/notis/gitlab/embedded/DDTR/DRR/bin/drrDLLDYN)
| ->10.33% (108,416B) 0x400E16: find_node (in /home/notis/gitlab/embedded/DDTR/DRR/bin/drrDLLDYN)
|   ->10.33% (108,416B) 0x400BDE: main (in /home/notis/gitlab/embedded/DDTR/DRR/bin/drrDLLDYN)
|     
->02.82% (29,568B) 0x400DDD: find_node (in /home/notis/gitlab/embedded/DDTR/DRR/bin/drrDLLDYN)
| ->02.82% (29,568B) 0x400BDE: main (in /home/notis/gitlab/embedded/DDTR/DRR/bin/drrDLLDYN)
|   
->02.82% (29,568B) 0x402423: cdsl_deque_list_lock_based_pthread_enqueue (in /home/notis/gitlab/embedded/DDTR/DRR/bin/drrDLLDYN)
| ->02.82% (29,568B) 0x400E41: find_node (in /home/notis/gitlab/embedded/DDTR/DRR/bin/drrDLLDYN)
|   ->02.82% (29,568B) 0x400BDE: main (in /home/notis/gitlab/embedded/DDTR/DRR/bin/drrDLLDYN)
|     
->01.31% (13,728B) 0x4025CA: cdsl_dyn_array_init (in /home/notis/gitlab/embedded/DDTR/DRR/bin/drrDLLDYN)
| ->01.31% (13,728B) 0x400E16: find_node (in /home/notis/gitlab/embedded/DDTR/DRR/bin/drrDLLDYN)
|   ->01.31% (13,728B) 0x400BDE: main (in /home/notis/gitlab/embedded/DDTR/DRR/bin/drrDLLDYN)
|     
->00.03% (264B) in 1+ places, all below ms_print's threshold (01.00%)

--------------------------------------------------------------------------------
  n        time(i)         total(B)   useful-heap(B) extra-heap(B)    stacks(B)
--------------------------------------------------------------------------------
 87    291,986,657        1,060,296          821,380       238,916            0
77.47% (821,380B) (heap allocation functions) malloc/new/new[], --alloc-fns, etc.
->44.39% (470,656B) 0x402707: cdsl_dyn_array_enqueue (in /home/notis/gitlab/embedded/DDTR/DRR/bin/drrDLLDYN)
| ->44.39% (470,656B) 0x400ECA: insert_packet (in /home/notis/gitlab/embedded/DDTR/DRR/bin/drrDLLDYN)
|   ->44.39% (470,656B) 0x400BF5: main (in /home/notis/gitlab/embedded/DDTR/DRR/bin/drrDLLDYN)
|     
->15.49% (164,244B) 0x400CF5: get_next_packet (in /home/notis/gitlab/embedded/DDTR/DRR/bin/drrDLLDYN)
| ->15.49% (164,244B) 0x400BC7: main (in /home/notis/gitlab/embedded/DDTR/DRR/bin/drrDLLDYN)
|   
->10.50% (111,320B) 0x40259B: cdsl_dyn_array_init (in /home/notis/gitlab/embedded/DDTR/DRR/bin/drrDLLDYN)
| ->10.50% (111,320B) 0x400E16: find_node (in /home/notis/gitlab/embedded/DDTR/DRR/bin/drrDLLDYN)
|   ->10.50% (111,320B) 0x400BDE: main (in /home/notis/gitlab/embedded/DDTR/DRR/bin/drrDLLDYN)
|     
->02.86% (30,360B) 0x400DDD: find_node (in /home/notis/gitlab/embedded/DDTR/DRR/bin/drrDLLDYN)
| ->02.86% (30,360B) 0x400BDE: main (in /home/notis/gitlab/embedded/DDTR/DRR/bin/drrDLLDYN)
|   
->02.86% (30,360B) 0x402423: cdsl_deque_list_lock_based_pthread_enqueue (in /home/notis/gitlab/embedded/DDTR/DRR/bin/drrDLLDYN)
| ->02.86% (30,360B) 0x400E41: find_node (in /home/notis/gitlab/embedded/DDTR/DRR/bin/drrDLLDYN)
|   ->02.86% (30,360B) 0x400BDE: main (in /home/notis/gitlab/embedded/DDTR/DRR/bin/drrDLLDYN)
|     
->01.34% (14,176B) 0x4025CA: cdsl_dyn_array_init (in /home/notis/gitlab/embedded/DDTR/DRR/bin/drrDLLDYN)
| ->01.34% (14,176B) 0x400E16: find_node (in /home/notis/gitlab/embedded/DDTR/DRR/bin/drrDLLDYN)
|   ->01.34% (14,176B) 0x400BDE: main (in /home/notis/gitlab/embedded/DDTR/DRR/bin/drrDLLDYN)
|     
->00.02% (264B) in 1+ places, all below ms_print's threshold (01.00%)

--------------------------------------------------------------------------------
  n        time(i)         total(B)   useful-heap(B) extra-heap(B)    stacks(B)
--------------------------------------------------------------------------------
 88    292,282,911        1,071,072          830,196       240,876            0
77.51% (830,196B) (heap allocation functions) malloc/new/new[], --alloc-fns, etc.
->44.26% (474,048B) 0x402707: cdsl_dyn_array_enqueue (in /home/notis/gitlab/embedded/DDTR/DRR/bin/drrDLLDYN)
| ->44.26% (474,048B) 0x400ECA: insert_packet (in /home/notis/gitlab/embedded/DDTR/DRR/bin/drrDLLDYN)
|   ->44.26% (474,048B) 0x400BF5: main (in /home/notis/gitlab/embedded/DDTR/DRR/bin/drrDLLDYN)
|     
->15.33% (164,196B) 0x400CF5: get_next_packet (in /home/notis/gitlab/embedded/DDTR/DRR/bin/drrDLLDYN)
| ->15.33% (164,196B) 0x400BC7: main (in /home/notis/gitlab/embedded/DDTR/DRR/bin/drrDLLDYN)
|   
->10.69% (114,488B) 0x40259B: cdsl_dyn_array_init (in /home/notis/gitlab/embedded/DDTR/DRR/bin/drrDLLDYN)
| ->10.69% (114,488B) 0x400E16: find_node (in /home/notis/gitlab/embedded/DDTR/DRR/bin/drrDLLDYN)
|   ->10.69% (114,488B) 0x400BDE: main (in /home/notis/gitlab/embedded/DDTR/DRR/bin/drrDLLDYN)
|     
->02.92% (31,224B) 0x400DDD: find_node (in /home/notis/gitlab/embedded/DDTR/DRR/bin/drrDLLDYN)
| ->02.92% (31,224B) 0x400BDE: main (in /home/notis/gitlab/embedded/DDTR/DRR/bin/drrDLLDYN)
|   
->02.92% (31,224B) 0x402423: cdsl_deque_list_lock_based_pthread_enqueue (in /home/notis/gitlab/embedded/DDTR/DRR/bin/drrDLLDYN)
| ->02.92% (31,224B) 0x400E41: find_node (in /home/notis/gitlab/embedded/DDTR/DRR/bin/drrDLLDYN)
|   ->02.92% (31,224B) 0x400BDE: main (in /home/notis/gitlab/embedded/DDTR/DRR/bin/drrDLLDYN)
|     
->01.38% (14,752B) 0x4025CA: cdsl_dyn_array_init (in /home/notis/gitlab/embedded/DDTR/DRR/bin/drrDLLDYN)
| ->01.38% (14,752B) 0x400E16: find_node (in /home/notis/gitlab/embedded/DDTR/DRR/bin/drrDLLDYN)
|   ->01.38% (14,752B) 0x400BDE: main (in /home/notis/gitlab/embedded/DDTR/DRR/bin/drrDLLDYN)
|     
->00.02% (264B) in 1+ places, all below ms_print's threshold (01.00%)

--------------------------------------------------------------------------------
  n        time(i)         total(B)   useful-heap(B) extra-heap(B)    stacks(B)
--------------------------------------------------------------------------------
 89    292,517,089        1,081,904          838,892       243,012            0
77.54% (838,892B) (heap allocation functions) malloc/new/new[], --alloc-fns, etc.
->44.09% (476,992B) 0x402707: cdsl_dyn_array_enqueue (in /home/notis/gitlab/embedded/DDTR/DRR/bin/drrDLLDYN)
| ->44.09% (476,992B) 0x400ECA: insert_packet (in /home/notis/gitlab/embedded/DDTR/DRR/bin/drrDLLDYN)
|   ->44.09% (476,992B) 0x400BF5: main (in /home/notis/gitlab/embedded/DDTR/DRR/bin/drrDLLDYN)
|     
->15.18% (164,244B) 0x400CF5: get_next_packet (in /home/notis/gitlab/embedded/DDTR/DRR/bin/drrDLLDYN)
| ->15.18% (164,244B) 0x400BC7: main (in /home/notis/gitlab/embedded/DDTR/DRR/bin/drrDLLDYN)
|   
->10.88% (117,744B) 0x40259B: cdsl_dyn_array_init (in /home/notis/gitlab/embedded/DDTR/DRR/bin/drrDLLDYN)
| ->10.88% (117,744B) 0x400E16: find_node (in /home/notis/gitlab/embedded/DDTR/DRR/bin/drrDLLDYN)
|   ->10.88% (117,744B) 0x400BDE: main (in /home/notis/gitlab/embedded/DDTR/DRR/bin/drrDLLDYN)
|     
->02.97% (32,112B) 0x400DDD: find_node (in /home/notis/gitlab/embedded/DDTR/DRR/bin/drrDLLDYN)
| ->02.97% (32,112B) 0x400BDE: main (in /home/notis/gitlab/embedded/DDTR/DRR/bin/drrDLLDYN)
|   
->02.97% (32,112B) 0x402423: cdsl_deque_list_lock_based_pthread_enqueue (in /home/notis/gitlab/embedded/DDTR/DRR/bin/drrDLLDYN)
| ->02.97% (32,112B) 0x400E41: find_node (in /home/notis/gitlab/embedded/DDTR/DRR/bin/drrDLLDYN)
|   ->02.97% (32,112B) 0x400BDE: main (in /home/notis/gitlab/embedded/DDTR/DRR/bin/drrDLLDYN)
|     
->01.43% (15,424B) 0x4025CA: cdsl_dyn_array_init (in /home/notis/gitlab/embedded/DDTR/DRR/bin/drrDLLDYN)
| ->01.43% (15,424B) 0x400E16: find_node (in /home/notis/gitlab/embedded/DDTR/DRR/bin/drrDLLDYN)
|   ->01.43% (15,424B) 0x400BDE: main (in /home/notis/gitlab/embedded/DDTR/DRR/bin/drrDLLDYN)
|     
->00.02% (264B) in 1+ places, all below ms_print's threshold (01.00%)

--------------------------------------------------------------------------------
  n        time(i)         total(B)   useful-heap(B) extra-heap(B)    stacks(B)
--------------------------------------------------------------------------------
 90    292,684,552        1,093,928          848,284       245,644            0
77.54% (848,284B) (heap allocation functions) malloc/new/new[], --alloc-fns, etc.
->43.95% (480,768B) 0x402707: cdsl_dyn_array_enqueue (in /home/notis/gitlab/embedded/DDTR/DRR/bin/drrDLLDYN)
| ->43.95% (480,768B) 0x400ECA: insert_packet (in /home/notis/gitlab/embedded/DDTR/DRR/bin/drrDLLDYN)
|   ->43.95% (480,768B) 0x400BF5: main (in /home/notis/gitlab/embedded/DDTR/DRR/bin/drrDLLDYN)
|     
->15.08% (164,988B) 0x400CF5: get_next_packet (in /home/notis/gitlab/embedded/DDTR/DRR/bin/drrDLLDYN)
| ->15.08% (164,988B) 0x400BC7: main (in /home/notis/gitlab/embedded/DDTR/DRR/bin/drrDLLDYN)
|   
->11.03% (120,648B) 0x40259B: cdsl_dyn_array_init (in /home/notis/gitlab/embedded/DDTR/DRR/bin/drrDLLDYN)
| ->11.03% (120,648B) 0x400E16: find_node (in /home/notis/gitlab/embedded/DDTR/DRR/bin/drrDLLDYN)
|   ->11.03% (120,648B) 0x400BDE: main (in /home/notis/gitlab/embedded/DDTR/DRR/bin/drrDLLDYN)
|     
->03.01% (32,904B) 0x400DDD: find_node (in /home/notis/gitlab/embedded/DDTR/DRR/bin/drrDLLDYN)
| ->03.01% (32,904B) 0x400BDE: main (in /home/notis/gitlab/embedded/DDTR/DRR/bin/drrDLLDYN)
|   
->03.01% (32,904B) 0x402423: cdsl_deque_list_lock_based_pthread_enqueue (in /home/notis/gitlab/embedded/DDTR/DRR/bin/drrDLLDYN)
| ->03.01% (32,904B) 0x400E41: find_node (in /home/notis/gitlab/embedded/DDTR/DRR/bin/drrDLLDYN)
|   ->03.01% (32,904B) 0x400BDE: main (in /home/notis/gitlab/embedded/DDTR/DRR/bin/drrDLLDYN)
|     
->01.45% (15,808B) 0x4025CA: cdsl_dyn_array_init (in /home/notis/gitlab/embedded/DDTR/DRR/bin/drrDLLDYN)
| ->01.45% (15,808B) 0x400E16: find_node (in /home/notis/gitlab/embedded/DDTR/DRR/bin/drrDLLDYN)
|   ->01.45% (15,808B) 0x400BDE: main (in /home/notis/gitlab/embedded/DDTR/DRR/bin/drrDLLDYN)
|     
->00.02% (264B) in 1+ places, all below ms_print's threshold (01.00%)

--------------------------------------------------------------------------------
  n        time(i)         total(B)   useful-heap(B) extra-heap(B)    stacks(B)
--------------------------------------------------------------------------------
 91    293,350,150        1,110,968          861,716       249,252            0
77.56% (861,716B) (heap allocation functions) malloc/new/new[], --alloc-fns, etc.
->44.02% (489,024B) 0x402707: cdsl_dyn_array_enqueue (in /home/notis/gitlab/embedded/DDTR/DRR/bin/drrDLLDYN)
| ->44.02% (489,024B) 0x400ECA: insert_packet (in /home/notis/gitlab/embedded/DDTR/DRR/bin/drrDLLDYN)
|   ->44.02% (489,024B) 0x400BF5: main (in /home/notis/gitlab/embedded/DDTR/DRR/bin/drrDLLDYN)
|     
->15.08% (167,556B) 0x400CF5: get_next_packet (in /home/notis/gitlab/embedded/DDTR/DRR/bin/drrDLLDYN)
| ->15.08% (167,556B) 0x400BC7: main (in /home/notis/gitlab/embedded/DDTR/DRR/bin/drrDLLDYN)
|   
->11.00% (122,232B) 0x40259B: cdsl_dyn_array_init (in /home/notis/gitlab/embedded/DDTR/DRR/bin/drrDLLDYN)
| ->11.00% (122,232B) 0x400E16: find_node (in /home/notis/gitlab/embedded/DDTR/DRR/bin/drrDLLDYN)
|   ->11.00% (122,232B) 0x400BDE: main (in /home/notis/gitlab/embedded/DDTR/DRR/bin/drrDLLDYN)
|     
->03.00% (33,336B) 0x400DDD: find_node (in /home/notis/gitlab/embedded/DDTR/DRR/bin/drrDLLDYN)
| ->03.00% (33,336B) 0x400BDE: main (in /home/notis/gitlab/embedded/DDTR/DRR/bin/drrDLLDYN)
|   
->03.00% (33,336B) 0x402423: cdsl_deque_list_lock_based_pthread_enqueue (in /home/notis/gitlab/embedded/DDTR/DRR/bin/drrDLLDYN)
| ->03.00% (33,336B) 0x400E41: find_node (in /home/notis/gitlab/embedded/DDTR/DRR/bin/drrDLLDYN)
|   ->03.00% (33,336B) 0x400BDE: main (in /home/notis/gitlab/embedded/DDTR/DRR/bin/drrDLLDYN)
|     
->01.44% (15,968B) 0x4025CA: cdsl_dyn_array_init (in /home/notis/gitlab/embedded/DDTR/DRR/bin/drrDLLDYN)
| ->01.44% (15,968B) 0x400E16: find_node (in /home/notis/gitlab/embedded/DDTR/DRR/bin/drrDLLDYN)
|   ->01.44% (15,968B) 0x400BDE: main (in /home/notis/gitlab/embedded/DDTR/DRR/bin/drrDLLDYN)
|     
->00.02% (264B) in 1+ places, all below ms_print's threshold (01.00%)

--------------------------------------------------------------------------------
  n        time(i)         total(B)   useful-heap(B) extra-heap(B)    stacks(B)
--------------------------------------------------------------------------------
 92    293,621,792        1,123,248          869,920       253,328            0
77.45% (869,920B) (heap allocation functions) malloc/new/new[], --alloc-fns, etc.
->43.90% (493,120B) 0x402707: cdsl_dyn_array_enqueue (in /home/notis/gitlab/embedded/DDTR/DRR/bin/drrDLLDYN)
| ->43.90% (493,120B) 0x400ECA: insert_packet (in /home/notis/gitlab/embedded/DDTR/DRR/bin/drrDLLDYN)
|   ->43.90% (493,120B) 0x400BF5: main (in /home/notis/gitlab/embedded/DDTR/DRR/bin/drrDLLDYN)
|     
->15.27% (171,528B) 0x400CF5: get_next_packet (in /home/notis/gitlab/embedded/DDTR/DRR/bin/drrDLLDYN)
| ->15.27% (171,528B) 0x400BC7: main (in /home/notis/gitlab/embedded/DDTR/DRR/bin/drrDLLDYN)
|   
->10.89% (122,320B) 0x40259B: cdsl_dyn_array_init (in /home/notis/gitlab/embedded/DDTR/DRR/bin/drrDLLDYN)
| ->10.89% (122,320B) 0x400E16: find_node (in /home/notis/gitlab/embedded/DDTR/DRR/bin/drrDLLDYN)
|   ->10.89% (122,320B) 0x400BDE: main (in /home/notis/gitlab/embedded/DDTR/DRR/bin/drrDLLDYN)
|     
->02.97% (33,360B) 0x400DDD: find_node (in /home/notis/gitlab/embedded/DDTR/DRR/bin/drrDLLDYN)
| ->02.97% (33,360B) 0x400BDE: main (in /home/notis/gitlab/embedded/DDTR/DRR/bin/drrDLLDYN)
|   
->02.97% (33,360B) 0x402423: cdsl_deque_list_lock_based_pthread_enqueue (in /home/notis/gitlab/embedded/DDTR/DRR/bin/drrDLLDYN)
| ->02.97% (33,360B) 0x400E41: find_node (in /home/notis/gitlab/embedded/DDTR/DRR/bin/drrDLLDYN)
|   ->02.97% (33,360B) 0x400BDE: main (in /home/notis/gitlab/embedded/DDTR/DRR/bin/drrDLLDYN)
|     
->01.42% (15,968B) 0x4025CA: cdsl_dyn_array_init (in /home/notis/gitlab/embedded/DDTR/DRR/bin/drrDLLDYN)
| ->01.42% (15,968B) 0x400E16: find_node (in /home/notis/gitlab/embedded/DDTR/DRR/bin/drrDLLDYN)
|   ->01.42% (15,968B) 0x400BDE: main (in /home/notis/gitlab/embedded/DDTR/DRR/bin/drrDLLDYN)
|     
->00.02% (264B) in 1+ places, all below ms_print's threshold (01.00%)

--------------------------------------------------------------------------------
  n        time(i)         total(B)   useful-heap(B) extra-heap(B)    stacks(B)
--------------------------------------------------------------------------------
 93    296,299,144        1,116,200          865,400       250,800            0
 94    296,859,958        1,134,768          880,880       253,888            0
77.63% (880,880B) (heap allocation functions) malloc/new/new[], --alloc-fns, etc.
->43.84% (497,536B) 0x402707: cdsl_dyn_array_enqueue (in /home/notis/gitlab/embedded/DDTR/DRR/bin/drrDLLDYN)
| ->43.84% (497,536B) 0x400ECA: insert_packet (in /home/notis/gitlab/embedded/DDTR/DRR/bin/drrDLLDYN)
|   ->43.84% (497,536B) 0x400BF5: main (in /home/notis/gitlab/embedded/DDTR/DRR/bin/drrDLLDYN)
|     
->14.86% (168,648B) 0x400CF5: get_next_packet (in /home/notis/gitlab/embedded/DDTR/DRR/bin/drrDLLDYN)
| ->14.86% (168,648B) 0x400BC7: main (in /home/notis/gitlab/embedded/DDTR/DRR/bin/drrDLLDYN)
|   
->11.26% (127,776B) 0x40259B: cdsl_dyn_array_init (in /home/notis/gitlab/embedded/DDTR/DRR/bin/drrDLLDYN)
| ->11.26% (127,776B) 0x400E16: find_node (in /home/notis/gitlab/embedded/DDTR/DRR/bin/drrDLLDYN)
|   ->11.26% (127,776B) 0x400BDE: main (in /home/notis/gitlab/embedded/DDTR/DRR/bin/drrDLLDYN)
|     
->03.07% (34,848B) 0x400DDD: find_node (in /home/notis/gitlab/embedded/DDTR/DRR/bin/drrDLLDYN)
| ->03.07% (34,848B) 0x400BDE: main (in /home/notis/gitlab/embedded/DDTR/DRR/bin/drrDLLDYN)
|   
->03.07% (34,848B) 0x402423: cdsl_deque_list_lock_based_pthread_enqueue (in /home/notis/gitlab/embedded/DDTR/DRR/bin/drrDLLDYN)
| ->03.07% (34,848B) 0x400E41: find_node (in /home/notis/gitlab/embedded/DDTR/DRR/bin/drrDLLDYN)
|   ->03.07% (34,848B) 0x400BDE: main (in /home/notis/gitlab/embedded/DDTR/DRR/bin/drrDLLDYN)
|     
->01.49% (16,960B) 0x4025CA: cdsl_dyn_array_init (in /home/notis/gitlab/embedded/DDTR/DRR/bin/drrDLLDYN)
| ->01.49% (16,960B) 0x400E16: find_node (in /home/notis/gitlab/embedded/DDTR/DRR/bin/drrDLLDYN)
|   ->01.49% (16,960B) 0x400BDE: main (in /home/notis/gitlab/embedded/DDTR/DRR/bin/drrDLLDYN)
|     
->00.02% (264B) in 1+ places, all below ms_print's threshold (01.00%)

--------------------------------------------------------------------------------
  n        time(i)         total(B)   useful-heap(B) extra-heap(B)    stacks(B)
--------------------------------------------------------------------------------
 95    297,144,381        1,146,280          890,304       255,976            0
77.67% (890,304B) (heap allocation functions) malloc/new/new[], --alloc-fns, etc.
->43.72% (501,120B) 0x402707: cdsl_dyn_array_enqueue (in /home/notis/gitlab/embedded/DDTR/DRR/bin/drrDLLDYN)
| ->43.72% (501,120B) 0x400ECA: insert_packet (in /home/notis/gitlab/embedded/DDTR/DRR/bin/drrDLLDYN)
|   ->43.72% (501,120B) 0x400BF5: main (in /home/notis/gitlab/embedded/DDTR/DRR/bin/drrDLLDYN)
|     
->14.70% (168,504B) 0x400CF5: get_next_packet (in /home/notis/gitlab/embedded/DDTR/DRR/bin/drrDLLDYN)
| ->14.70% (168,504B) 0x400BC7: main (in /home/notis/gitlab/embedded/DDTR/DRR/bin/drrDLLDYN)
|   
->11.45% (131,296B) 0x40259B: cdsl_dyn_array_init (in /home/notis/gitlab/embedded/DDTR/DRR/bin/drrDLLDYN)
| ->11.45% (131,296B) 0x400E16: find_node (in /home/notis/gitlab/embedded/DDTR/DRR/bin/drrDLLDYN)
|   ->11.45% (131,296B) 0x400BDE: main (in /home/notis/gitlab/embedded/DDTR/DRR/bin/drrDLLDYN)
|     
->03.12% (35,808B) 0x400DDD: find_node (in /home/notis/gitlab/embedded/DDTR/DRR/bin/drrDLLDYN)
| ->03.12% (35,808B) 0x400BDE: main (in /home/notis/gitlab/embedded/DDTR/DRR/bin/drrDLLDYN)
|   
->03.12% (35,808B) 0x402423: cdsl_deque_list_lock_based_pthread_enqueue (in /home/notis/gitlab/embedded/DDTR/DRR/bin/drrDLLDYN)
| ->03.12% (35,808B) 0x400E41: find_node (in /home/notis/gitlab/embedded/DDTR/DRR/bin/drrDLLDYN)
|   ->03.12% (35,808B) 0x400BDE: main (in /home/notis/gitlab/embedded/DDTR/DRR/bin/drrDLLDYN)
|     
->01.53% (17,504B) 0x4025CA: cdsl_dyn_array_init (in /home/notis/gitlab/embedded/DDTR/DRR/bin/drrDLLDYN)
| ->01.53% (17,504B) 0x400E16: find_node (in /home/notis/gitlab/embedded/DDTR/DRR/bin/drrDLLDYN)
|   ->01.53% (17,504B) 0x400BDE: main (in /home/notis/gitlab/embedded/DDTR/DRR/bin/drrDLLDYN)
|     
->00.02% (264B) in 1+ places, all below ms_print's threshold (01.00%)

--------------------------------------------------------------------------------
  n        time(i)         total(B)   useful-heap(B) extra-heap(B)    stacks(B)
--------------------------------------------------------------------------------
 96    297,284,204        1,157,944          898,656       259,288            0
77.61% (898,656B) (heap allocation functions) malloc/new/new[], --alloc-fns, etc.
->43.58% (504,640B) 0x402707: cdsl_dyn_array_enqueue (in /home/notis/gitlab/embedded/DDTR/DRR/bin/drrDLLDYN)
| ->43.58% (504,640B) 0x400ECA: insert_packet (in /home/notis/gitlab/embedded/DDTR/DRR/bin/drrDLLDYN)
|   ->43.58% (504,640B) 0x400BF5: main (in /home/notis/gitlab/embedded/DDTR/DRR/bin/drrDLLDYN)
|     
->14.75% (170,832B) 0x400CF5: get_next_packet (in /home/notis/gitlab/embedded/DDTR/DRR/bin/drrDLLDYN)
| ->14.75% (170,832B) 0x400BC7: main (in /home/notis/gitlab/embedded/DDTR/DRR/bin/drrDLLDYN)
|   
->11.47% (132,792B) 0x40259B: cdsl_dyn_array_init (in /home/notis/gitlab/embedded/DDTR/DRR/bin/drrDLLDYN)
| ->11.47% (132,792B) 0x400E16: find_node (in /home/notis/gitlab/embedded/DDTR/DRR/bin/drrDLLDYN)
|   ->11.47% (132,792B) 0x400BDE: main (in /home/notis/gitlab/embedded/DDTR/DRR/bin/drrDLLDYN)
|     
->03.13% (36,216B) 0x400DDD: find_node (in /home/notis/gitlab/embedded/DDTR/DRR/bin/drrDLLDYN)
| ->03.13% (36,216B) 0x400BDE: main (in /home/notis/gitlab/embedded/DDTR/DRR/bin/drrDLLDYN)
|   
->03.13% (36,216B) 0x402423: cdsl_deque_list_lock_based_pthread_enqueue (in /home/notis/gitlab/embedded/DDTR/DRR/bin/drrDLLDYN)
| ->03.13% (36,216B) 0x400E41: find_node (in /home/notis/gitlab/embedded/DDTR/DRR/bin/drrDLLDYN)
|   ->03.13% (36,216B) 0x400BDE: main (in /home/notis/gitlab/embedded/DDTR/DRR/bin/drrDLLDYN)
|     
->01.53% (17,696B) 0x4025CA: cdsl_dyn_array_init (in /home/notis/gitlab/embedded/DDTR/DRR/bin/drrDLLDYN)
| ->01.53% (17,696B) 0x400E16: find_node (in /home/notis/gitlab/embedded/DDTR/DRR/bin/drrDLLDYN)
|   ->01.53% (17,696B) 0x400BDE: main (in /home/notis/gitlab/embedded/DDTR/DRR/bin/drrDLLDYN)
|     
->00.02% (264B) in 1+ places, all below ms_print's threshold (01.00%)

--------------------------------------------------------------------------------
  n        time(i)         total(B)   useful-heap(B) extra-heap(B)    stacks(B)
--------------------------------------------------------------------------------
 97    298,041,698        1,169,784          909,572       260,212            0
77.76% (909,572B) (heap allocation functions) malloc/new/new[], --alloc-fns, etc.
->43.59% (509,952B) 0x402707: cdsl_dyn_array_enqueue (in /home/notis/gitlab/embedded/DDTR/DRR/bin/drrDLLDYN)
| ->43.59% (509,952B) 0x400ECA: insert_packet (in /home/notis/gitlab/embedded/DDTR/DRR/bin/drrDLLDYN)
|   ->43.59% (509,952B) 0x400BF5: main (in /home/notis/gitlab/embedded/DDTR/DRR/bin/drrDLLDYN)
|     
->14.43% (168,852B) 0x400CF5: get_next_packet (in /home/notis/gitlab/embedded/DDTR/DRR/bin/drrDLLDYN)
| ->14.43% (168,852B) 0x400BC7: main (in /home/notis/gitlab/embedded/DDTR/DRR/bin/drrDLLDYN)
|   
->11.74% (137,368B) 0x40259B: cdsl_dyn_array_init (in /home/notis/gitlab/embedded/DDTR/DRR/bin/drrDLLDYN)
| ->11.74% (137,368B) 0x400E16: find_node (in /home/notis/gitlab/embedded/DDTR/DRR/bin/drrDLLDYN)
|   ->11.74% (137,368B) 0x400BDE: main (in /home/notis/gitlab/embedded/DDTR/DRR/bin/drrDLLDYN)
|     
->03.20% (37,464B) 0x400DDD: find_node (in /home/notis/gitlab/embedded/DDTR/DRR/bin/drrDLLDYN)
| ->03.20% (37,464B) 0x400BDE: main (in /home/notis/gitlab/embedded/DDTR/DRR/bin/drrDLLDYN)
|   
->03.20% (37,464B) 0x402423: cdsl_deque_list_lock_based_pthread_enqueue (in /home/notis/gitlab/embedded/DDTR/DRR/bin/drrDLLDYN)
| ->03.20% (37,464B) 0x400E41: find_node (in /home/notis/gitlab/embedded/DDTR/DRR/bin/drrDLLDYN)
|   ->03.20% (37,464B) 0x400BDE: main (in /home/notis/gitlab/embedded/DDTR/DRR/bin/drrDLLDYN)
|     
->01.56% (18,208B) 0x4025CA: cdsl_dyn_array_init (in /home/notis/gitlab/embedded/DDTR/DRR/bin/drrDLLDYN)
| ->01.56% (18,208B) 0x400E16: find_node (in /home/notis/gitlab/embedded/DDTR/DRR/bin/drrDLLDYN)
|   ->01.56% (18,208B) 0x400BDE: main (in /home/notis/gitlab/embedded/DDTR/DRR/bin/drrDLLDYN)
|     
->00.02% (264B) in 1+ places, all below ms_print's threshold (01.00%)

--------------------------------------------------------------------------------
  n        time(i)         total(B)   useful-heap(B) extra-heap(B)    stacks(B)
--------------------------------------------------------------------------------
 98    298,350,470        1,182,768          919,344       263,424            0
77.73% (919,344B) (heap allocation functions) malloc/new/new[], --alloc-fns, etc.
->43.57% (515,328B) 0x402707: cdsl_dyn_array_enqueue (in /home/notis/gitlab/embedded/DDTR/DRR/bin/drrDLLDYN)
| ->43.57% (515,328B) 0x400ECA: insert_packet (in /home/notis/gitlab/embedded/DDTR/DRR/bin/drrDLLDYN)
|   ->43.57% (515,328B) 0x400BF5: main (in /home/notis/gitlab/embedded/DDTR/DRR/bin/drrDLLDYN)
|     
->14.48% (171,216B) 0x400CF5: get_next_packet (in /home/notis/gitlab/embedded/DDTR/DRR/bin/drrDLLDYN)
| ->14.48% (171,216B) 0x400BC7: main (in /home/notis/gitlab/embedded/DDTR/DRR/bin/drrDLLDYN)
|   
->11.72% (138,600B) 0x40259B: cdsl_dyn_array_init (in /home/notis/gitlab/embedded/DDTR/DRR/bin/drrDLLDYN)
| ->11.72% (138,600B) 0x400E16: find_node (in /home/notis/gitlab/embedded/DDTR/DRR/bin/drrDLLDYN)
|   ->11.72% (138,600B) 0x400BDE: main (in /home/notis/gitlab/embedded/DDTR/DRR/bin/drrDLLDYN)
|     
->03.20% (37,800B) 0x400DDD: find_node (in /home/notis/gitlab/embedded/DDTR/DRR/bin/drrDLLDYN)
| ->03.20% (37,800B) 0x400BDE: main (in /home/notis/gitlab/embedded/DDTR/DRR/bin/drrDLLDYN)
|   
->03.20% (37,800B) 0x402423: cdsl_deque_list_lock_based_pthread_enqueue (in /home/notis/gitlab/embedded/DDTR/DRR/bin/drrDLLDYN)
| ->03.20% (37,800B) 0x400E41: find_node (in /home/notis/gitlab/embedded/DDTR/DRR/bin/drrDLLDYN)
|   ->03.20% (37,800B) 0x400BDE: main (in /home/notis/gitlab/embedded/DDTR/DRR/bin/drrDLLDYN)
|     
->01.55% (18,336B) 0x4025CA: cdsl_dyn_array_init (in /home/notis/gitlab/embedded/DDTR/DRR/bin/drrDLLDYN)
| ->01.55% (18,336B) 0x400E16: find_node (in /home/notis/gitlab/embedded/DDTR/DRR/bin/drrDLLDYN)
|   ->01.55% (18,336B) 0x400BDE: main (in /home/notis/gitlab/embedded/DDTR/DRR/bin/drrDLLDYN)
|     
->00.02% (264B) in 1+ places, all below ms_print's threshold (01.00%)

